%TF.GenerationSoftware,KiCad,Pcbnew,5.1.12*%
%TF.CreationDate,2021-12-30T00:12:15-03:00*%
%TF.ProjectId,plate,706c6174-652e-46b6-9963-61645f706362,VERSION_HERE*%
%TF.SameCoordinates,Original*%
%TF.FileFunction,Profile,NP*%
%FSLAX46Y46*%
G04 Gerber Fmt 4.6, Leading zero omitted, Abs format (unit mm)*
G04 Created by KiCad (PCBNEW 5.1.12) date 2021-12-30 00:12:15*
%MOMM*%
%LPD*%
G01*
G04 APERTURE LIST*
%TA.AperFunction,Profile*%
%ADD10C,0.150000*%
%TD*%
G04 APERTURE END LIST*
D10*
X-5351059Y-11570055D02*
X11640514Y-6375209D01*
X-22680179Y41690640D02*
X-6599736Y-10906122D01*
X-22016246Y42939316D02*
X-12480815Y45854590D01*
X-12358947Y59848209D02*
X22181548Y64089248D01*
X-13229624Y58733793D02*
X-11780640Y46932765D01*
X42024486Y66283481D02*
X41768445Y69945042D01*
X40701124Y70872849D02*
X23742536Y69686989D01*
X22814728Y68619669D02*
X23057242Y65151551D01*
X62980010Y64379915D02*
X62956675Y65048151D01*
X43056950Y65353847D02*
X61922385Y66012642D01*
X83962844Y13657720D02*
X83962844Y16914815D01*
X83962844Y21914815D02*
X83962844Y34914815D01*
X83962844Y39914815D02*
X83962844Y44414815D01*
X83962844Y44414815D02*
X83962844Y52914815D01*
X83962844Y57914815D02*
X83962844Y62414815D01*
X63979401Y63414815D02*
X82962844Y63414815D01*
X39532133Y-10747776D02*
X58382802Y-11735697D01*
X58521275Y-11752700D02*
X77034908Y-15351385D01*
X77169667Y-15387494D02*
X94122884Y-21224955D01*
X95393970Y-20605004D02*
X104184311Y4923997D01*
X84637276Y12712202D02*
X103564360Y6195084D01*
X198494401Y-6375209D02*
X215485974Y-11570055D01*
X216734651Y-10906122D02*
X232815094Y41690640D01*
X208049870Y50307821D02*
X232151161Y42939316D01*
X207349695Y51385995D02*
X208476347Y60561833D01*
X187953367Y64089248D02*
X207605670Y61676249D01*
X187077672Y65151551D02*
X187320187Y68619669D01*
X186392379Y69686989D02*
X169433790Y70872849D01*
X168366470Y69945042D02*
X168110429Y66283481D01*
X148212530Y66012642D02*
X167077965Y65353847D01*
X147178240Y65048151D02*
X147154904Y64379915D01*
X126172071Y13657720D02*
X126172071Y16914815D01*
X126172071Y21914815D02*
X126172071Y34914815D01*
X126172071Y39914815D02*
X126172071Y44414815D01*
X127172071Y63414815D02*
X146155514Y63414815D01*
X126172071Y44414815D02*
X126172071Y52914815D01*
X126172071Y57914815D02*
X126172071Y62414815D01*
X151752113Y-11735697D02*
X170602782Y-10747776D01*
X133100007Y-15351385D02*
X151613640Y-11752700D01*
X116012031Y-21224955D02*
X132965248Y-15387494D01*
X105950604Y4923997D02*
X114740944Y-20605004D01*
X106570555Y6195084D02*
X125497639Y12712202D01*
X12091539Y-6344180D02*
X39425816Y-10736481D01*
X198043376Y-6344180D02*
X170709099Y-10736481D01*
X11640514Y-6375209D02*
G75*
G02*
X12091539Y-6344180I292372J-956305D01*
G01*
X39532133Y-10747777D02*
G75*
G02*
X39425816Y-10736481I52336J998631D01*
G01*
X58382802Y-11735697D02*
G75*
G02*
X58521275Y-11752700I-52336J-998630D01*
G01*
X77034908Y-15351386D02*
G75*
G02*
X77169667Y-15387494I-190809J-981627D01*
G01*
X95393971Y-20605004D02*
G75*
G02*
X94122884Y-21224955I-945519J325568D01*
G01*
X103564360Y6195084D02*
G75*
G02*
X104184311Y4923997I-325568J-945519D01*
G01*
X84637276Y12712201D02*
G75*
G02*
X83962844Y13657720I325568J945519D01*
G01*
X82962844Y63414815D02*
G75*
G02*
X83962844Y62414815I0J-1000000D01*
G01*
X63979400Y63414815D02*
G75*
G02*
X62980010Y64379916I1J1000000D01*
G01*
X61922385Y66012643D02*
G75*
G02*
X62956675Y65048151I34899J-999391D01*
G01*
X43056950Y65353847D02*
G75*
G02*
X42024486Y66283481I-34900J999391D01*
G01*
X40701124Y70872849D02*
G75*
G02*
X41768445Y69945042I69757J-997564D01*
G01*
X22814728Y68619669D02*
G75*
G02*
X23742536Y69686989I997564J69756D01*
G01*
X23057242Y65151551D02*
G75*
G02*
X22181548Y64089248I-997564J-69757D01*
G01*
X-13229624Y58733794D02*
G75*
G02*
X-12358947Y59848209I992546J121869D01*
G01*
X-11780640Y46932764D02*
G75*
G02*
X-12480815Y45854590I-992546J-121869D01*
G01*
X-22680179Y41690641D02*
G75*
G02*
X-22016246Y42939316I956304J292371D01*
G01*
X-5351059Y-11570055D02*
G75*
G02*
X-6599736Y-10906122I-292372J956305D01*
G01*
X216734651Y-10906122D02*
G75*
G02*
X215485974Y-11570055I-956305J292372D01*
G01*
X232151161Y42939317D02*
G75*
G02*
X232815094Y41690640I-292372J-956305D01*
G01*
X208049869Y50307819D02*
G75*
G02*
X207349695Y51385995I292373J956306D01*
G01*
X207605671Y61676249D02*
G75*
G02*
X208476347Y60561833I-121870J-992546D01*
G01*
X187953367Y64089248D02*
G75*
G02*
X187077673Y65151551I121870J992546D01*
G01*
X186392379Y69686989D02*
G75*
G02*
X187320187Y68619669I-69756J-997564D01*
G01*
X168366470Y69945041D02*
G75*
G02*
X169433790Y70872849I997564J-69756D01*
G01*
X168110428Y66283482D02*
G75*
G02*
X167077965Y65353847I-997564J69756D01*
G01*
X147178240Y65048152D02*
G75*
G02*
X148212530Y66012642I999390J-34900D01*
G01*
X147154905Y64379915D02*
G75*
G02*
X146155514Y63414815I-999391J34900D01*
G01*
X126172071Y62414815D02*
G75*
G02*
X127172071Y63414815I1000000J0D01*
G01*
X126172070Y13657720D02*
G75*
G02*
X125497639Y12712202I-999999J0D01*
G01*
X105950604Y4923997D02*
G75*
G02*
X106570555Y6195084I945519J325568D01*
G01*
X116012031Y-21224955D02*
G75*
G02*
X114740944Y-20605004I-325568J945519D01*
G01*
X132965248Y-15387493D02*
G75*
G02*
X133100007Y-15351385I325568J-945520D01*
G01*
X151613640Y-11752700D02*
G75*
G02*
X151752113Y-11735697I190809J-981627D01*
G01*
X170709099Y-10736480D02*
G75*
G02*
X170602782Y-10747776I-158653J987334D01*
G01*
X198043376Y-6344180D02*
G75*
G02*
X198494401Y-6375209I158653J-987334D01*
G01*
X85962844Y14914815D02*
X124172071Y14914815D01*
X85962844Y59914815D02*
X124172071Y59914815D01*
X84962844Y58914815D02*
X84962844Y57914815D01*
X84962844Y52914815D02*
X84962844Y39914815D01*
X84962844Y34914815D02*
X84962844Y21914815D01*
X84962844Y16914815D02*
X84962844Y15914815D01*
X125172071Y15914815D02*
X125172071Y16914815D01*
X125172071Y21914815D02*
X125172071Y34914815D01*
X125172071Y39914815D02*
X125172071Y52914815D01*
X125172071Y57914815D02*
X125172071Y58914815D01*
X83962844Y16914815D02*
X84962844Y16914815D01*
X84962844Y21914815D02*
X83962844Y21914815D01*
X125172071Y16914815D02*
X126172071Y16914815D01*
X126172071Y21914815D02*
X125172071Y21914815D01*
X83962844Y34914815D02*
X84962844Y34914815D01*
X84962844Y39914815D02*
X83962844Y39914815D01*
X125172071Y34914815D02*
X126172071Y34914815D01*
X126172071Y39914815D02*
X125172071Y39914815D01*
X83962844Y52914815D02*
X84962844Y52914815D01*
X84962844Y57914815D02*
X83962844Y57914815D01*
X125172071Y52914815D02*
X126172071Y52914815D01*
X126172071Y57914815D02*
X125172071Y57914815D01*
X85962844Y14914815D02*
G75*
G02*
X84962844Y15914815I0J1000000D01*
G01*
X125172071Y15914815D02*
G75*
G02*
X124172071Y14914815I-1000000J0D01*
G01*
X124172071Y59914815D02*
G75*
G02*
X125172071Y58914815I0J-1000000D01*
G01*
X84962844Y58914815D02*
G75*
G02*
X85962844Y59914815I1000000J0D01*
G01*
X84289344Y2600125D02*
G75*
G03*
X84289344Y2600125I-1000000J0D01*
G01*
X-3691227Y-8448363D02*
X7784430Y-4939903D01*
X8448363Y-3691227D02*
X4939903Y7784430D01*
X3691227Y8448363D02*
X-7784430Y4939903D01*
X-8448363Y3691227D02*
X-4939903Y-7784430D01*
X-9246289Y9721427D02*
X2229368Y13229887D01*
X2893301Y14478564D02*
X-615159Y25954221D01*
X-1863836Y26618154D02*
X-13339493Y23109694D01*
X-14003426Y21861017D02*
X-10494966Y10385360D01*
X-14801351Y27891217D02*
X-3325694Y31399678D01*
X-2661761Y32648354D02*
X-6170222Y44124011D01*
X-7418898Y44787944D02*
X-18894555Y41279484D01*
X-19558488Y40030807D02*
X-16050028Y28555150D01*
X11652489Y7887157D02*
X23563043Y9349589D01*
X24433720Y10464005D02*
X22971288Y22374558D01*
X21856873Y23245235D02*
X9946319Y21782803D01*
X9075642Y20668388D02*
X10538074Y8757834D01*
X9336972Y26745534D02*
X21247526Y28207966D01*
X22118203Y29322382D02*
X20655771Y41232935D01*
X19541355Y42103612D02*
X7630801Y40641180D01*
X6760124Y39526765D02*
X8222556Y27616211D01*
X7021454Y45603911D02*
X18932008Y47066343D01*
X19802685Y48180758D02*
X18340253Y60091312D01*
X17225837Y60961989D02*
X5315284Y59499557D01*
X4444607Y58385141D02*
X5907039Y46474588D01*
X30038174Y15494140D02*
X42008942Y16331218D01*
X42936750Y17398538D02*
X42099672Y29369307D01*
X41032351Y30297114D02*
X29061583Y29460037D01*
X28133775Y28392716D02*
X28970853Y16421947D01*
X28712801Y34447857D02*
X40683569Y35284934D01*
X41611377Y36352255D02*
X40774299Y48323024D01*
X39706978Y49250831D02*
X27736210Y48413753D01*
X26808402Y47346433D02*
X27645480Y35375664D01*
X27387428Y53401574D02*
X39358196Y54238651D01*
X40286004Y55305972D02*
X39448926Y67276741D01*
X38381605Y68204548D02*
X26410837Y67367470D01*
X25483029Y66300150D02*
X26320107Y54329381D01*
X49333240Y11039799D02*
X61325930Y11458594D01*
X62290422Y12492884D02*
X61871628Y24485574D01*
X60837337Y25450065D02*
X48844647Y25031271D01*
X47880156Y23996981D02*
X48298950Y12004291D01*
X48670150Y30028225D02*
X60662840Y30447019D01*
X61627331Y31481309D02*
X61208537Y43473999D01*
X60174247Y44438491D02*
X48181557Y44019697D01*
X47217066Y42985406D02*
X47635860Y30992716D01*
X48007060Y49016651D02*
X59999750Y49435445D01*
X60964241Y50469735D02*
X60545447Y62462425D01*
X59511156Y63426917D02*
X47518466Y63008123D01*
X46553975Y61973832D02*
X46972769Y49981142D01*
X68462844Y8914815D02*
X80462844Y8914815D01*
X81462844Y9914815D02*
X81462844Y21914815D01*
X80462844Y22914815D02*
X68462844Y22914815D01*
X67462844Y21914815D02*
X67462844Y9914815D01*
X68462844Y27914815D02*
X80462844Y27914815D01*
X81462844Y28914815D02*
X81462844Y40914815D01*
X80462844Y41914815D02*
X68462844Y41914815D01*
X67462844Y40914815D02*
X67462844Y28914815D01*
X68462844Y46914815D02*
X80462844Y46914815D01*
X81462844Y47914815D02*
X81462844Y59914815D01*
X80462844Y60914815D02*
X68462844Y60914815D01*
X67462844Y59914815D02*
X67462844Y47914815D01*
X43104715Y-8431576D02*
X55088269Y-9059607D01*
X56139235Y-8113314D02*
X56767266Y3870241D01*
X55820973Y4921206D02*
X43837418Y5549238D01*
X42786453Y4602944D02*
X42158421Y-7380610D01*
X62365351Y-9953121D02*
X74144877Y-12242829D01*
X75317313Y-11452010D02*
X77607021Y327516D01*
X76816203Y1499952D02*
X65036676Y3789660D01*
X63864240Y2998842D02*
X61574532Y-8780684D01*
X81226785Y-14140420D02*
X92573008Y-18047238D01*
X93844094Y-17427287D02*
X97750912Y-6081065D01*
X97130962Y-4809978D02*
X85784739Y-903160D01*
X84513652Y-1523110D02*
X80606834Y-12869333D01*
X202350484Y-4939903D02*
X213826141Y-8448363D01*
X215074818Y-7784430D02*
X218583278Y3691227D01*
X217919345Y4939903D02*
X206443688Y8448363D01*
X205195012Y7784430D02*
X201686551Y-3691227D01*
X207905547Y13229887D02*
X219381204Y9721427D01*
X220629880Y10385360D02*
X224138341Y21861017D01*
X223474408Y23109694D02*
X211998751Y26618154D01*
X210750074Y25954221D02*
X207241614Y14478564D01*
X213460609Y31399678D02*
X224936266Y27891217D01*
X226184943Y28555150D02*
X229693403Y40030807D01*
X229029470Y41279484D02*
X217553813Y44787944D01*
X216305136Y44124011D02*
X212796676Y32648354D01*
X186571872Y9349589D02*
X198482425Y7887157D01*
X199596841Y8757834D02*
X201059273Y20668388D01*
X200188596Y21782803D02*
X188278042Y23245235D01*
X187163627Y22374558D02*
X185701195Y10464005D01*
X188887389Y28207966D02*
X200797943Y26745534D01*
X201912358Y27616211D02*
X203374790Y39526765D01*
X202504114Y40641180D02*
X190593560Y42103612D01*
X189479144Y41232935D02*
X188016712Y29322382D01*
X191202907Y47066343D02*
X203113460Y45603911D01*
X204227876Y46474588D02*
X205690308Y58385141D01*
X204819631Y59499557D02*
X192909077Y60961989D01*
X191794662Y60091312D02*
X190332230Y48180758D01*
X168125973Y16331218D02*
X180096741Y15494140D01*
X181164062Y16421947D02*
X182001140Y28392716D01*
X181073332Y29460037D02*
X169102563Y30297114D01*
X168035243Y29369307D02*
X167198165Y17398538D01*
X169451346Y35284934D02*
X181422114Y34447857D01*
X182489435Y35375664D02*
X183326513Y47346433D01*
X182398705Y48413753D02*
X170427936Y49250831D01*
X169360616Y48323024D02*
X168523538Y36352255D01*
X170776719Y54238651D02*
X182747487Y53401574D01*
X183814808Y54329381D02*
X184651886Y66300150D01*
X183724078Y67367470D02*
X171753309Y68204548D01*
X170685989Y67276741D02*
X169848911Y55305972D01*
X148808984Y11458594D02*
X160801674Y11039799D01*
X161835965Y12004291D02*
X162254759Y23996981D01*
X161290268Y25031271D02*
X149297578Y25450065D01*
X148263287Y24485574D02*
X147844493Y12492884D01*
X149472075Y30447019D02*
X161464765Y30028225D01*
X162499055Y30992716D02*
X162917849Y42985406D01*
X161953358Y44019697D02*
X149960668Y44438491D01*
X148926378Y43473999D02*
X148507584Y31481309D01*
X150135165Y49435445D02*
X162127855Y49016651D01*
X163162146Y49981142D02*
X163580940Y61973832D01*
X162616448Y63008123D02*
X150623758Y63426917D01*
X149589468Y62462425D02*
X149170674Y50469735D01*
X129672071Y8914815D02*
X141672071Y8914815D01*
X142672071Y9914815D02*
X142672071Y21914815D01*
X141672071Y22914815D02*
X129672071Y22914815D01*
X128672071Y21914815D02*
X128672071Y9914815D01*
X129672071Y27914815D02*
X141672071Y27914815D01*
X142672071Y28914815D02*
X142672071Y40914815D01*
X141672071Y41914815D02*
X129672071Y41914815D01*
X128672071Y40914815D02*
X128672071Y28914815D01*
X129672071Y46914815D02*
X141672071Y46914815D01*
X142672071Y47914815D02*
X142672071Y59914815D01*
X141672071Y60914815D02*
X129672071Y60914815D01*
X128672071Y59914815D02*
X128672071Y47914815D01*
X155046645Y-9059607D02*
X167030200Y-8431576D01*
X167976493Y-7380610D02*
X167348462Y4602944D01*
X166297496Y5549238D02*
X154313942Y4921206D01*
X153367648Y3870241D02*
X153995680Y-8113314D01*
X135990038Y-12242829D02*
X147769564Y-9953121D01*
X148560382Y-8780684D02*
X146270675Y2998842D01*
X145098238Y3789660D02*
X133318712Y1499952D01*
X132527894Y327516D02*
X134817602Y-11452010D01*
X117561907Y-18047238D02*
X128908130Y-14140420D01*
X129528080Y-12869333D02*
X125621263Y-1523110D01*
X124350176Y-903160D02*
X113003953Y-4809978D01*
X112384003Y-6081065D02*
X116290820Y-17427287D01*
X24433720Y10464004D02*
G75*
G02*
X23563043Y9349589I-992546J-121869D01*
G01*
X21856873Y23245235D02*
G75*
G02*
X22971288Y22374558I121869J-992546D01*
G01*
X9075642Y20668388D02*
G75*
G02*
X9946319Y21782803I992546J121869D01*
G01*
X11652489Y7887157D02*
G75*
G02*
X10538074Y8757834I-121869J992546D01*
G01*
X19802685Y48180758D02*
G75*
G02*
X18932008Y47066343I-992546J-121869D01*
G01*
X17225838Y60961989D02*
G75*
G02*
X18340253Y60091312I121869J-992546D01*
G01*
X4444607Y58385142D02*
G75*
G02*
X5315284Y59499557I992546J121869D01*
G01*
X7021454Y45603911D02*
G75*
G02*
X5907039Y46474588I-121869J992546D01*
G01*
X22118202Y29322382D02*
G75*
G02*
X21247526Y28207966I-992546J-121870D01*
G01*
X19541355Y42103613D02*
G75*
G02*
X20655771Y41232935I121869J-992547D01*
G01*
X6760125Y39526764D02*
G75*
G02*
X7630801Y40641180I992546J121870D01*
G01*
X9336972Y26745533D02*
G75*
G02*
X8222556Y27616211I-121869J992547D01*
G01*
X199596841Y8757833D02*
G75*
G02*
X198482425Y7887157I-992546J121870D01*
G01*
X200188596Y21782803D02*
G75*
G02*
X201059273Y20668388I-121869J-992546D01*
G01*
X187163627Y22374558D02*
G75*
G02*
X188278042Y23245235I992546J-121869D01*
G01*
X186571871Y9349589D02*
G75*
G02*
X185701195Y10464005I121870J992546D01*
G01*
X204227876Y46474587D02*
G75*
G02*
X203113460Y45603911I-992546J121870D01*
G01*
X204819632Y59499557D02*
G75*
G02*
X205690308Y58385141I-121870J-992546D01*
G01*
X191794662Y60091312D02*
G75*
G02*
X192909077Y60961989I992546J-121869D01*
G01*
X191202907Y47066343D02*
G75*
G02*
X190332230Y48180758I121869J992546D01*
G01*
X201912358Y27616211D02*
G75*
G02*
X200797943Y26745534I-992546J121869D01*
G01*
X202504113Y40641180D02*
G75*
G02*
X203374790Y39526765I-121869J-992546D01*
G01*
X189479144Y41232936D02*
G75*
G02*
X190593560Y42103612I992546J-121870D01*
G01*
X188887388Y28207966D02*
G75*
G02*
X188016712Y29322382I121870J992546D01*
G01*
X148560383Y-8780684D02*
G75*
G02*
X147769564Y-9953121I-981628J-190809D01*
G01*
X145098238Y3789661D02*
G75*
G02*
X146270675Y2998842I190809J-981628D01*
G01*
X132527894Y327516D02*
G75*
G02*
X133318712Y1499952I981627J190809D01*
G01*
X135990038Y-12242828D02*
G75*
G02*
X134817602Y-11452010I-190809J981627D01*
G01*
X75317314Y-11452010D02*
G75*
G02*
X74144877Y-12242829I-981628J190809D01*
G01*
X76816203Y1499952D02*
G75*
G02*
X77607021Y327516I-190809J-981627D01*
G01*
X63864240Y2998842D02*
G75*
G02*
X65036676Y3789660I981627J-190809D01*
G01*
X62365351Y-9953121D02*
G75*
G02*
X61574532Y-8780684I190809J981628D01*
G01*
X62290421Y12492883D02*
G75*
G02*
X61325930Y11458594I-999390J-34899D01*
G01*
X60837337Y25450065D02*
G75*
G02*
X61871628Y24485574I34900J-999391D01*
G01*
X47880156Y23996980D02*
G75*
G02*
X48844647Y25031271I999391J34900D01*
G01*
X49333240Y11039799D02*
G75*
G02*
X48298950Y12004291I-34899J999391D01*
G01*
X61627331Y31481310D02*
G75*
G02*
X60662840Y30447019I-999391J-34900D01*
G01*
X60174247Y44438491D02*
G75*
G02*
X61208537Y43473999I34899J-999391D01*
G01*
X47217065Y42985407D02*
G75*
G02*
X48181557Y44019697I999391J34899D01*
G01*
X48670150Y30028226D02*
G75*
G02*
X47635860Y30992716I-34900J999390D01*
G01*
X60964241Y50469736D02*
G75*
G02*
X59999750Y49435445I-999391J-34900D01*
G01*
X59511157Y63426917D02*
G75*
G02*
X60545447Y62462425I34899J-999391D01*
G01*
X46553975Y61973832D02*
G75*
G02*
X47518466Y63008123I999391J34900D01*
G01*
X48007060Y49016651D02*
G75*
G02*
X46972769Y49981142I-34900J999391D01*
G01*
X161835965Y12004290D02*
G75*
G02*
X160801674Y11039799I-999391J34900D01*
G01*
X161290267Y25031271D02*
G75*
G02*
X162254759Y23996981I-34899J-999391D01*
G01*
X148263287Y24485574D02*
G75*
G02*
X149297578Y25450065I999391J-34900D01*
G01*
X148808984Y11458593D02*
G75*
G02*
X147844493Y12492884I34900J999391D01*
G01*
X163162146Y49981142D02*
G75*
G02*
X162127855Y49016651I-999391J34900D01*
G01*
X162616449Y63008123D02*
G75*
G02*
X163580940Y61973832I-34900J-999391D01*
G01*
X149589468Y62462425D02*
G75*
G02*
X150623758Y63426917I999391J-34899D01*
G01*
X150135166Y49435445D02*
G75*
G02*
X149170674Y50469735I34899J999391D01*
G01*
X162499055Y30992717D02*
G75*
G02*
X161464765Y30028225I-999391J34899D01*
G01*
X161953358Y44019697D02*
G75*
G02*
X162917849Y42985406I-34900J-999391D01*
G01*
X148926377Y43474000D02*
G75*
G02*
X149960668Y44438491I999391J-34900D01*
G01*
X149472075Y30447020D02*
G75*
G02*
X148507584Y31481309I34899J999390D01*
G01*
X181164062Y16421947D02*
G75*
G02*
X180096741Y15494140I-997564J69757D01*
G01*
X181073333Y29460037D02*
G75*
G02*
X182001140Y28392716I-69757J-997564D01*
G01*
X168035243Y29369306D02*
G75*
G02*
X169102563Y30297114I997564J-69756D01*
G01*
X168125973Y16331218D02*
G75*
G02*
X167198165Y17398538I69756J997564D01*
G01*
X182489435Y35375664D02*
G75*
G02*
X181422114Y34447857I-997564J69757D01*
G01*
X182398705Y48413753D02*
G75*
G02*
X183326513Y47346433I-69756J-997564D01*
G01*
X169360616Y48323023D02*
G75*
G02*
X170427936Y49250831I997564J-69756D01*
G01*
X169451345Y35284934D02*
G75*
G02*
X168523538Y36352255I69757J997564D01*
G01*
X41611377Y36352254D02*
G75*
G02*
X40683569Y35284934I-997564J-69756D01*
G01*
X39706978Y49250831D02*
G75*
G02*
X40774299Y48323024I69757J-997564D01*
G01*
X26808402Y47346433D02*
G75*
G02*
X27736210Y48413753I997564J69756D01*
G01*
X28712801Y34447857D02*
G75*
G02*
X27645480Y35375664I-69757J997564D01*
G01*
X183814808Y54329381D02*
G75*
G02*
X182747487Y53401574I-997564J69757D01*
G01*
X183724078Y67367470D02*
G75*
G02*
X184651886Y66300150I-69756J-997564D01*
G01*
X170685989Y67276740D02*
G75*
G02*
X171753309Y68204548I997564J-69756D01*
G01*
X170776718Y54238651D02*
G75*
G02*
X169848911Y55305972I69757J997564D01*
G01*
X42936750Y17398538D02*
G75*
G02*
X42008942Y16331218I-997564J-69756D01*
G01*
X41032351Y30297114D02*
G75*
G02*
X42099672Y29369307I69757J-997564D01*
G01*
X28133775Y28392717D02*
G75*
G02*
X29061583Y29460037I997564J69756D01*
G01*
X30038174Y15494140D02*
G75*
G02*
X28970853Y16421947I-69757J997564D01*
G01*
X40286004Y55305971D02*
G75*
G02*
X39358196Y54238651I-997564J-69756D01*
G01*
X38381605Y68204548D02*
G75*
G02*
X39448926Y67276741I69757J-997564D01*
G01*
X25483029Y66300150D02*
G75*
G02*
X26410837Y67367470I997564J69756D01*
G01*
X27387428Y53401574D02*
G75*
G02*
X26320107Y54329381I-69757J997564D01*
G01*
X81462844Y9914815D02*
G75*
G02*
X80462844Y8914815I-1000000J0D01*
G01*
X80462844Y22914815D02*
G75*
G02*
X81462844Y21914815I0J-1000000D01*
G01*
X67462844Y21914815D02*
G75*
G02*
X68462844Y22914815I1000000J0D01*
G01*
X68462844Y8914815D02*
G75*
G02*
X67462844Y9914815I0J1000000D01*
G01*
X81462844Y28914815D02*
G75*
G02*
X80462844Y27914815I-1000000J0D01*
G01*
X80462844Y41914815D02*
G75*
G02*
X81462844Y40914815I0J-1000000D01*
G01*
X67462844Y40914815D02*
G75*
G02*
X68462844Y41914815I1000000J0D01*
G01*
X68462844Y27914815D02*
G75*
G02*
X67462844Y28914815I0J1000000D01*
G01*
X81462844Y47914815D02*
G75*
G02*
X80462844Y46914815I-1000000J0D01*
G01*
X80462844Y60914815D02*
G75*
G02*
X81462844Y59914815I0J-1000000D01*
G01*
X67462844Y59914815D02*
G75*
G02*
X68462844Y60914815I1000000J0D01*
G01*
X68462844Y46914815D02*
G75*
G02*
X67462844Y47914815I0J1000000D01*
G01*
X142672071Y9914815D02*
G75*
G02*
X141672071Y8914815I-1000000J0D01*
G01*
X141672071Y22914815D02*
G75*
G02*
X142672071Y21914815I0J-1000000D01*
G01*
X128672071Y21914815D02*
G75*
G02*
X129672071Y22914815I1000000J0D01*
G01*
X129672071Y8914815D02*
G75*
G02*
X128672071Y9914815I0J1000000D01*
G01*
X142672071Y28914815D02*
G75*
G02*
X141672071Y27914815I-1000000J0D01*
G01*
X141672071Y41914815D02*
G75*
G02*
X142672071Y40914815I0J-1000000D01*
G01*
X128672071Y40914815D02*
G75*
G02*
X129672071Y41914815I1000000J0D01*
G01*
X129672071Y27914815D02*
G75*
G02*
X128672071Y28914815I0J1000000D01*
G01*
X142672071Y47914815D02*
G75*
G02*
X141672071Y46914815I-1000000J0D01*
G01*
X141672071Y60914815D02*
G75*
G02*
X142672071Y59914815I0J-1000000D01*
G01*
X128672071Y59914815D02*
G75*
G02*
X129672071Y60914815I1000000J0D01*
G01*
X129672071Y46914815D02*
G75*
G02*
X128672071Y47914815I0J1000000D01*
G01*
X8448364Y-3691227D02*
G75*
G02*
X7784430Y-4939903I-956305J-292371D01*
G01*
X3691227Y8448364D02*
G75*
G02*
X4939903Y7784430I292371J-956305D01*
G01*
X-8448364Y3691227D02*
G75*
G02*
X-7784430Y4939903I956305J292371D01*
G01*
X-3691227Y-8448364D02*
G75*
G02*
X-4939903Y-7784430I-292371J956305D01*
G01*
X2893301Y14478564D02*
G75*
G02*
X2229368Y13229887I-956305J-292372D01*
G01*
X-1863836Y26618154D02*
G75*
G02*
X-615159Y25954221I292372J-956305D01*
G01*
X-14003426Y21861017D02*
G75*
G02*
X-13339493Y23109694I956305J292372D01*
G01*
X-9246289Y9721427D02*
G75*
G02*
X-10494966Y10385360I-292372J956305D01*
G01*
X-2661762Y32648354D02*
G75*
G02*
X-3325694Y31399678I-956304J-292372D01*
G01*
X-7418898Y44787943D02*
G75*
G02*
X-6170222Y44124011I292372J-956304D01*
G01*
X-19558488Y40030807D02*
G75*
G02*
X-18894555Y41279484I956305J292372D01*
G01*
X-14801351Y27891217D02*
G75*
G02*
X-16050028Y28555150I-292372J956305D01*
G01*
X220629881Y10385360D02*
G75*
G02*
X219381204Y9721427I-956305J292372D01*
G01*
X223474408Y23109694D02*
G75*
G02*
X224138341Y21861017I-292372J-956305D01*
G01*
X210750074Y25954221D02*
G75*
G02*
X211998751Y26618154I956305J-292372D01*
G01*
X207905547Y13229887D02*
G75*
G02*
X207241614Y14478564I292372J956305D01*
G01*
X226184943Y28555150D02*
G75*
G02*
X224936266Y27891217I-956305J292372D01*
G01*
X229029470Y41279484D02*
G75*
G02*
X229693403Y40030807I-292372J-956305D01*
G01*
X216305136Y44124011D02*
G75*
G02*
X217553813Y44787944I956305J-292372D01*
G01*
X213460609Y31399677D02*
G75*
G02*
X212796676Y32648354I292372J956305D01*
G01*
X215074817Y-7784431D02*
G75*
G02*
X213826141Y-8448363I-956304J292372D01*
G01*
X217919344Y4939903D02*
G75*
G02*
X218583278Y3691227I-292371J-956305D01*
G01*
X205195012Y7784431D02*
G75*
G02*
X206443688Y8448363I956304J-292372D01*
G01*
X202350485Y-4939903D02*
G75*
G02*
X201686551Y-3691227I292371J956305D01*
G01*
X93844095Y-17427287D02*
G75*
G02*
X92573008Y-18047238I-945519J325568D01*
G01*
X97130963Y-4809978D02*
G75*
G02*
X97750912Y-6081065I-325569J-945518D01*
G01*
X84513652Y-1523111D02*
G75*
G02*
X85784739Y-903160I945519J-325568D01*
G01*
X81226785Y-14140420D02*
G75*
G02*
X80606834Y-12869333I325568J945519D01*
G01*
X129528081Y-12869333D02*
G75*
G02*
X128908130Y-14140420I-945519J-325568D01*
G01*
X124350175Y-903160D02*
G75*
G02*
X125621263Y-1523110I325569J-945519D01*
G01*
X112384003Y-6081064D02*
G75*
G02*
X113003953Y-4809978I945518J325568D01*
G01*
X117561907Y-18047238D02*
G75*
G02*
X116290820Y-17427287I-325568J945519D01*
G01*
X56139234Y-8113314D02*
G75*
G02*
X55088269Y-9059607I-998629J52336D01*
G01*
X55820973Y4921206D02*
G75*
G02*
X56767266Y3870241I-52336J-998629D01*
G01*
X42786452Y4602944D02*
G75*
G02*
X43837418Y5549238I998630J-52336D01*
G01*
X43104715Y-8431576D02*
G75*
G02*
X42158421Y-7380610I52336J998630D01*
G01*
X167976494Y-7380610D02*
G75*
G02*
X167030200Y-8431576I-998630J-52336D01*
G01*
X166297496Y5549238D02*
G75*
G02*
X167348462Y4602944I52336J-998630D01*
G01*
X153367649Y3870241D02*
G75*
G02*
X154313942Y4921206I998629J52336D01*
G01*
X155046645Y-9059607D02*
G75*
G02*
X153995680Y-8113314I-52336J998629D01*
G01*
M02*
