%TF.GenerationSoftware,KiCad,Pcbnew,5.1.12*%
%TF.CreationDate,2021-12-30T00:12:15-03:00*%
%TF.ProjectId,plate,706c6174-652e-46b6-9963-61645f706362,VERSION_HERE*%
%TF.SameCoordinates,Original*%
%TF.FileFunction,Legend,Bot*%
%TF.FilePolarity,Positive*%
%FSLAX46Y46*%
G04 Gerber Fmt 4.6, Leading zero omitted, Abs format (unit mm)*
G04 Created by KiCad (PCBNEW 5.1.12) date 2021-12-30 00:12:15*
%MOMM*%
%LPD*%
G01*
G04 APERTURE LIST*
%ADD10C,0.150000*%
G04 APERTURE END LIST*
D10*
X95652647Y16397219D02*
X95652647Y15682933D01*
X95700266Y15540076D01*
X95795504Y15444838D01*
X95938361Y15397219D01*
X96033600Y15397219D01*
X94700266Y15397219D02*
X95176457Y15397219D01*
X95176457Y16397219D01*
X93795504Y15492457D02*
X93843123Y15444838D01*
X93985980Y15397219D01*
X94081219Y15397219D01*
X94224076Y15444838D01*
X94319314Y15540076D01*
X94366933Y15635314D01*
X94414552Y15825790D01*
X94414552Y15968647D01*
X94366933Y16159123D01*
X94319314Y16254361D01*
X94224076Y16349600D01*
X94081219Y16397219D01*
X93985980Y16397219D01*
X93843123Y16349600D01*
X93795504Y16301980D01*
X93081219Y16397219D02*
X93081219Y15682933D01*
X93128838Y15540076D01*
X93224076Y15444838D01*
X93366933Y15397219D01*
X93462171Y15397219D01*
X92128838Y15397219D02*
X92605028Y15397219D01*
X92605028Y16397219D01*
X91224076Y15492457D02*
X91271695Y15444838D01*
X91414552Y15397219D01*
X91509790Y15397219D01*
X91652647Y15444838D01*
X91747885Y15540076D01*
X91795504Y15635314D01*
X91843123Y15825790D01*
X91843123Y15968647D01*
X91795504Y16159123D01*
X91747885Y16254361D01*
X91652647Y16349600D01*
X91509790Y16397219D01*
X91414552Y16397219D01*
X91271695Y16349600D01*
X91224076Y16301980D01*
X90509790Y16397219D02*
X90509790Y15682933D01*
X90557409Y15540076D01*
X90652647Y15444838D01*
X90795504Y15397219D01*
X90890742Y15397219D01*
X89557409Y15397219D02*
X90033600Y15397219D01*
X90033600Y16397219D01*
X88652647Y15492457D02*
X88700266Y15444838D01*
X88843123Y15397219D01*
X88938361Y15397219D01*
X89081219Y15444838D01*
X89176457Y15540076D01*
X89224076Y15635314D01*
X89271695Y15825790D01*
X89271695Y15968647D01*
X89224076Y16159123D01*
X89176457Y16254361D01*
X89081219Y16349600D01*
X88938361Y16397219D01*
X88843123Y16397219D01*
X88700266Y16349600D01*
X88652647Y16301980D01*
X87938361Y16397219D02*
X87938361Y15682933D01*
X87985980Y15540076D01*
X88081219Y15444838D01*
X88224076Y15397219D01*
X88319314Y15397219D01*
X86985980Y15397219D02*
X87462171Y15397219D01*
X87462171Y16397219D01*
X86081219Y15492457D02*
X86128838Y15444838D01*
X86271695Y15397219D01*
X86366933Y15397219D01*
X86509790Y15444838D01*
X86605028Y15540076D01*
X86652647Y15635314D01*
X86700266Y15825790D01*
X86700266Y15968647D01*
X86652647Y16159123D01*
X86605028Y16254361D01*
X86509790Y16349600D01*
X86366933Y16397219D01*
X86271695Y16397219D01*
X86128838Y16349600D01*
X86081219Y16301980D01*
M02*
