G04 #@! TF.GenerationSoftware,KiCad,Pcbnew,6.0.0-rc2-unknown*
G04 #@! TF.CreationDate,2022-01-12T20:35:37-03:00*
G04 #@! TF.ProjectId,teclassio,7465636c-6173-4736-996f-2e6b69636164,0.1*
G04 #@! TF.SameCoordinates,Original*
G04 #@! TF.FileFunction,Soldermask,Top*
G04 #@! TF.FilePolarity,Negative*
%FSLAX46Y46*%
G04 Gerber Fmt 4.6, Leading zero omitted, Abs format (unit mm)*
G04 Created by KiCad (PCBNEW 6.0.0-rc2-unknown) date 2022-01-12 20:35:37*
%MOMM*%
%LPD*%
G01*
G04 APERTURE LIST*
%ADD10R,0.900000X1.200000*%
%ADD11C,0.600000*%
%ADD12R,1.800000X2.100000*%
%ADD13C,4.300000*%
%ADD14C,0.300000*%
%ADD15R,1.200000X0.900000*%
%ADD16R,0.800000X0.900000*%
%ADD17C,1.900000*%
%ADD18C,4.000000*%
G04 APERTURE END LIST*
G36*
G01*
X102709343Y-138081354D02*
X103180803Y-138023466D01*
G75*
G02*
X103445477Y-138230252I28944J-235730D01*
G01*
X103518599Y-138825780D01*
G75*
G02*
X103311813Y-139090454I-235730J-28944D01*
G01*
X102840353Y-139148342D01*
G75*
G02*
X102575679Y-138941556I-28944J235730D01*
G01*
X102502557Y-138346028D01*
G75*
G02*
X102709343Y-138081354I235730J28944D01*
G01*
G37*
G36*
G01*
X102919567Y-139793496D02*
X103391027Y-139735608D01*
G75*
G02*
X103655701Y-139942394I28944J-235730D01*
G01*
X103728823Y-140537922D01*
G75*
G02*
X103522037Y-140802596I-235730J-28944D01*
G01*
X103050577Y-140860484D01*
G75*
G02*
X102785903Y-140653698I-28944J235730D01*
G01*
X102712781Y-140058170D01*
G75*
G02*
X102919567Y-139793496I235730J28944D01*
G01*
G37*
G36*
G01*
X107845769Y-137450678D02*
X108317229Y-137392790D01*
G75*
G02*
X108581903Y-137599576I28944J-235730D01*
G01*
X108655025Y-138195104D01*
G75*
G02*
X108448239Y-138459778I-235730J-28944D01*
G01*
X107976779Y-138517666D01*
G75*
G02*
X107712105Y-138310880I-28944J235730D01*
G01*
X107638983Y-137715352D01*
G75*
G02*
X107845769Y-137450678I235730J28944D01*
G01*
G37*
G36*
G01*
X108055993Y-139162820D02*
X108527453Y-139104932D01*
G75*
G02*
X108792127Y-139311718I28944J-235730D01*
G01*
X108865249Y-139907246D01*
G75*
G02*
X108658463Y-140171920I-235730J-28944D01*
G01*
X108187003Y-140229808D01*
G75*
G02*
X107922329Y-140023022I-28944J235730D01*
G01*
X107849207Y-139427494D01*
G75*
G02*
X108055993Y-139162820I235730J28944D01*
G01*
G37*
G36*
G01*
X278998705Y-181535880D02*
X278523705Y-181535880D01*
G75*
G02*
X278286205Y-181298380I0J237500D01*
G01*
X278286205Y-180698380D01*
G75*
G02*
X278523705Y-180460880I237500J0D01*
G01*
X278998705Y-180460880D01*
G75*
G02*
X279236205Y-180698380I0J-237500D01*
G01*
X279236205Y-181298380D01*
G75*
G02*
X278998705Y-181535880I-237500J0D01*
G01*
G37*
G36*
G01*
X278998705Y-179810880D02*
X278523705Y-179810880D01*
G75*
G02*
X278286205Y-179573380I0J237500D01*
G01*
X278286205Y-178973380D01*
G75*
G02*
X278523705Y-178735880I237500J0D01*
G01*
X278998705Y-178735880D01*
G75*
G02*
X279236205Y-178973380I0J-237500D01*
G01*
X279236205Y-179573380D01*
G75*
G02*
X278998705Y-179810880I-237500J0D01*
G01*
G37*
G36*
G01*
X277298706Y-181535877D02*
X276823706Y-181535877D01*
G75*
G02*
X276586206Y-181298377I0J237500D01*
G01*
X276586206Y-180698377D01*
G75*
G02*
X276823706Y-180460877I237500J0D01*
G01*
X277298706Y-180460877D01*
G75*
G02*
X277536206Y-180698377I0J-237500D01*
G01*
X277536206Y-181298377D01*
G75*
G02*
X277298706Y-181535877I-237500J0D01*
G01*
G37*
G36*
G01*
X277298706Y-179810877D02*
X276823706Y-179810877D01*
G75*
G02*
X276586206Y-179573377I0J237500D01*
G01*
X276586206Y-178973377D01*
G75*
G02*
X276823706Y-178735877I237500J0D01*
G01*
X277298706Y-178735877D01*
G75*
G02*
X277536206Y-178973377I0J-237500D01*
G01*
X277536206Y-179573377D01*
G75*
G02*
X277298706Y-179810877I-237500J0D01*
G01*
G37*
G36*
X104237585Y-136886198D02*
G01*
X104091342Y-135695143D01*
X104984633Y-135585460D01*
X105130876Y-136776515D01*
X104237585Y-136886198D01*
G37*
G36*
X107512987Y-136484030D02*
G01*
X107366744Y-135292975D01*
X108260035Y-135183292D01*
X108406278Y-136374347D01*
X107512987Y-136484030D01*
G37*
G36*
X95445166Y-158313033D02*
G01*
X95094320Y-157165467D01*
X95954994Y-156902333D01*
X96305840Y-158049899D01*
X95445166Y-158313033D01*
G37*
G36*
X98600972Y-157348207D02*
G01*
X98250126Y-156200641D01*
X99110800Y-155937507D01*
X99461646Y-157085073D01*
X98600972Y-157348207D01*
G37*
G36*
X137394146Y-133745151D02*
G01*
X137310438Y-132548074D01*
X138208246Y-132485293D01*
X138291954Y-133682370D01*
X137394146Y-133745151D01*
G37*
G36*
X140686108Y-133514955D02*
G01*
X140602400Y-132317878D01*
X141500208Y-132255097D01*
X141583916Y-133452174D01*
X140686108Y-133514955D01*
G37*
G36*
X157958149Y-138269295D02*
G01*
X157916269Y-137070026D01*
X158815721Y-137038617D01*
X158857601Y-138237886D01*
X157958149Y-138269295D01*
G37*
G36*
X161256139Y-138154127D02*
G01*
X161214259Y-136954858D01*
X162113711Y-136923449D01*
X162155591Y-138122718D01*
X161256139Y-138154127D01*
G37*
D10*
X178803503Y-139908342D03*
X182103503Y-139908342D03*
X243312733Y-139908336D03*
X240012733Y-139908336D03*
G36*
X264199944Y-137070030D02*
G01*
X264158064Y-138269299D01*
X263258612Y-138237890D01*
X263300492Y-137038621D01*
X264199944Y-137070030D01*
G37*
G36*
X260901954Y-136954862D02*
G01*
X260860074Y-138154131D01*
X259960622Y-138122722D01*
X260002502Y-136923453D01*
X260901954Y-136954862D01*
G37*
G36*
X284805798Y-132548060D02*
G01*
X284722090Y-133745137D01*
X283824282Y-133682356D01*
X283907990Y-132485279D01*
X284805798Y-132548060D01*
G37*
G36*
X281513836Y-132317864D02*
G01*
X281430128Y-133514941D01*
X280532320Y-133452160D01*
X280616028Y-132255083D01*
X281513836Y-132317864D01*
G37*
G36*
X305160080Y-140139495D02*
G01*
X305013837Y-141330550D01*
X304120546Y-141220867D01*
X304266789Y-140029812D01*
X305160080Y-140139495D01*
G37*
G36*
X301884678Y-139737327D02*
G01*
X301738435Y-140928382D01*
X300845144Y-140818699D01*
X300991387Y-139627644D01*
X301884678Y-139737327D01*
G37*
G36*
X101000238Y-176482830D02*
G01*
X100649392Y-175335264D01*
X101510066Y-175072130D01*
X101860912Y-176219696D01*
X101000238Y-176482830D01*
G37*
G36*
X104156044Y-175518004D02*
G01*
X103805198Y-174370438D01*
X104665872Y-174107304D01*
X105016718Y-175254870D01*
X104156044Y-175518004D01*
G37*
G36*
X119417925Y-160188917D02*
G01*
X119271682Y-158997862D01*
X120164973Y-158888179D01*
X120311216Y-160079234D01*
X119417925Y-160188917D01*
G37*
G36*
X122693327Y-159786749D02*
G01*
X122547084Y-158595694D01*
X123440375Y-158486011D01*
X123586618Y-159677066D01*
X122693327Y-159786749D01*
G37*
G36*
X138719528Y-152698872D02*
G01*
X138635820Y-151501795D01*
X139533628Y-151439014D01*
X139617336Y-152636091D01*
X138719528Y-152698872D01*
G37*
G36*
X142011490Y-152468676D02*
G01*
X141927782Y-151271599D01*
X142825590Y-151208818D01*
X142909298Y-152405895D01*
X142011490Y-152468676D01*
G37*
G36*
X158621247Y-157257719D02*
G01*
X158579367Y-156058450D01*
X159478819Y-156027041D01*
X159520699Y-157226310D01*
X158621247Y-157257719D01*
G37*
G36*
X161919237Y-157142551D02*
G01*
X161877357Y-155943282D01*
X162776809Y-155911873D01*
X162818689Y-157111142D01*
X161919237Y-157142551D01*
G37*
X178803498Y-158908331D03*
X182103498Y-158908331D03*
X243312730Y-158908341D03*
X240012730Y-158908341D03*
G36*
X263536859Y-156058450D02*
G01*
X263494979Y-157257719D01*
X262595527Y-157226310D01*
X262637407Y-156027041D01*
X263536859Y-156058450D01*
G37*
G36*
X260238869Y-155943282D02*
G01*
X260196989Y-157142551D01*
X259297537Y-157111142D01*
X259339417Y-155911873D01*
X260238869Y-155943282D01*
G37*
G36*
X283480415Y-151501783D02*
G01*
X283396707Y-152698860D01*
X282498899Y-152636079D01*
X282582607Y-151439002D01*
X283480415Y-151501783D01*
G37*
G36*
X280188453Y-151271587D02*
G01*
X280104745Y-152468664D01*
X279206937Y-152405883D01*
X279290645Y-151208806D01*
X280188453Y-151271587D01*
G37*
G36*
X302844546Y-158997874D02*
G01*
X302698303Y-160188929D01*
X301805012Y-160079246D01*
X301951255Y-158888191D01*
X302844546Y-158997874D01*
G37*
G36*
X299569144Y-158595706D02*
G01*
X299422901Y-159786761D01*
X298529610Y-159677078D01*
X298675853Y-158486023D01*
X299569144Y-158595706D01*
G37*
G36*
X321466858Y-175335268D02*
G01*
X321116012Y-176482834D01*
X320255338Y-176219700D01*
X320606184Y-175072134D01*
X321466858Y-175335268D01*
G37*
G36*
X318311052Y-174370442D02*
G01*
X317960206Y-175518008D01*
X317099532Y-175254874D01*
X317450378Y-174107308D01*
X318311052Y-174370442D01*
G37*
G36*
X101760395Y-178969212D02*
G01*
X101409549Y-177821646D01*
X102270223Y-177558512D01*
X102621069Y-178706078D01*
X101760395Y-178969212D01*
G37*
G36*
X104916201Y-178004386D02*
G01*
X104565355Y-176856820D01*
X105426029Y-176593686D01*
X105776875Y-177741252D01*
X104916201Y-178004386D01*
G37*
G36*
X119734788Y-162769529D02*
G01*
X119588545Y-161578474D01*
X120481836Y-161468791D01*
X120628079Y-162659846D01*
X119734788Y-162769529D01*
G37*
G36*
X123010190Y-162367361D02*
G01*
X122863947Y-161176306D01*
X123757238Y-161066623D01*
X123903481Y-162257678D01*
X123010190Y-162367361D01*
G37*
G36*
X138900893Y-155292530D02*
G01*
X138817185Y-154095453D01*
X139714993Y-154032672D01*
X139798701Y-155229749D01*
X138900893Y-155292530D01*
G37*
G36*
X142192855Y-155062334D02*
G01*
X142109147Y-153865257D01*
X143006955Y-153802476D01*
X143090663Y-154999553D01*
X142192855Y-155062334D01*
G37*
G36*
X158711996Y-159856128D02*
G01*
X158670116Y-158656859D01*
X159569568Y-158625450D01*
X159611448Y-159824719D01*
X158711996Y-159856128D01*
G37*
G36*
X162009986Y-159740960D02*
G01*
X161968106Y-158541691D01*
X162867558Y-158510282D01*
X162909438Y-159709551D01*
X162009986Y-159740960D01*
G37*
X178803509Y-161508342D03*
X182103509Y-161508342D03*
X243312737Y-161508349D03*
X240012737Y-161508349D03*
G36*
X263446112Y-158656869D02*
G01*
X263404232Y-159856138D01*
X262504780Y-159824729D01*
X262546660Y-158625460D01*
X263446112Y-158656869D01*
G37*
G36*
X260148122Y-158541701D02*
G01*
X260106242Y-159740970D01*
X259206790Y-159709561D01*
X259248670Y-158510292D01*
X260148122Y-158541701D01*
G37*
G36*
X283299052Y-154095452D02*
G01*
X283215344Y-155292529D01*
X282317536Y-155229748D01*
X282401244Y-154032671D01*
X283299052Y-154095452D01*
G37*
G36*
X280007090Y-153865256D02*
G01*
X279923382Y-155062333D01*
X279025574Y-154999552D01*
X279109282Y-153802475D01*
X280007090Y-153865256D01*
G37*
G36*
X302527685Y-161578479D02*
G01*
X302381442Y-162769534D01*
X301488151Y-162659851D01*
X301634394Y-161468796D01*
X302527685Y-161578479D01*
G37*
G36*
X299252283Y-161176311D02*
G01*
X299106040Y-162367366D01*
X298212749Y-162257683D01*
X298358992Y-161066628D01*
X299252283Y-161176311D01*
G37*
G36*
X320706686Y-177821640D02*
G01*
X320355840Y-178969206D01*
X319495166Y-178706072D01*
X319846012Y-177558506D01*
X320706686Y-177821640D01*
G37*
G36*
X317550880Y-176856814D02*
G01*
X317200034Y-178004380D01*
X316339360Y-177741246D01*
X316690206Y-176593680D01*
X317550880Y-176856814D01*
G37*
G36*
X153754132Y-179678842D02*
G01*
X153816935Y-178480486D01*
X154715702Y-178527588D01*
X154652899Y-179725944D01*
X153754132Y-179678842D01*
G37*
G36*
X157049610Y-179851550D02*
G01*
X157112413Y-178653194D01*
X158011180Y-178700296D01*
X157948377Y-179898652D01*
X157049610Y-179851550D01*
G37*
G36*
X174970170Y-181988679D02*
G01*
X175199141Y-180810727D01*
X176082606Y-180982455D01*
X175853635Y-182160407D01*
X174970170Y-181988679D01*
G37*
G36*
X178209540Y-182618349D02*
G01*
X178438511Y-181440397D01*
X179321976Y-181612125D01*
X179093005Y-182790077D01*
X178209540Y-182618349D01*
G37*
G36*
X195658264Y-187228719D02*
G01*
X196048946Y-186094097D01*
X196899912Y-186387109D01*
X196509230Y-187521731D01*
X195658264Y-187228719D01*
G37*
G36*
X198778476Y-188303093D02*
G01*
X199169158Y-187168471D01*
X200020124Y-187461483D01*
X199629442Y-188596105D01*
X198778476Y-188303093D01*
G37*
G36*
X226067300Y-186094107D02*
G01*
X226457982Y-187228729D01*
X225607016Y-187521741D01*
X225216334Y-186387119D01*
X226067300Y-186094107D01*
G37*
G36*
X222947088Y-187168481D02*
G01*
X223337770Y-188303103D01*
X222486804Y-188596115D01*
X222096122Y-187461493D01*
X222947088Y-187168481D01*
G37*
G36*
X246917093Y-180810715D02*
G01*
X247146064Y-181988667D01*
X246262599Y-182160395D01*
X246033628Y-180982443D01*
X246917093Y-180810715D01*
G37*
G36*
X243677723Y-181440385D02*
G01*
X243906694Y-182618337D01*
X243023229Y-182790065D01*
X242794258Y-181612113D01*
X243677723Y-181440385D01*
G37*
G36*
X268299303Y-178480484D02*
G01*
X268362106Y-179678840D01*
X267463339Y-179725942D01*
X267400536Y-178527586D01*
X268299303Y-178480484D01*
G37*
G36*
X265003825Y-178653192D02*
G01*
X265066628Y-179851548D01*
X264167861Y-179898650D01*
X264105058Y-178700294D01*
X265003825Y-178653192D01*
G37*
G36*
G01*
X99331040Y-135901817D02*
X99483377Y-137142499D01*
G75*
G02*
X99265707Y-137421103I-248137J-30467D01*
G01*
X98521298Y-137512505D01*
G75*
G02*
X98242694Y-137294835I-30467J248137D01*
G01*
X98090357Y-136054153D01*
G75*
G02*
X98308027Y-135775549I248137J30467D01*
G01*
X99052436Y-135684147D01*
G75*
G02*
X99331040Y-135901817I30467J-248137D01*
G01*
G37*
G36*
G01*
X96551910Y-136243051D02*
X96704247Y-137483733D01*
G75*
G02*
X96486577Y-137762337I-248137J-30467D01*
G01*
X95742168Y-137853739D01*
G75*
G02*
X95463564Y-137636069I-30467J248137D01*
G01*
X95311227Y-136395387D01*
G75*
G02*
X95528897Y-136116783I248137J30467D01*
G01*
X96273306Y-136025381D01*
G75*
G02*
X96551910Y-136243051I30467J-248137D01*
G01*
G37*
G36*
X104203213Y-131023924D02*
G01*
X104081344Y-130031378D01*
X104617319Y-129965568D01*
X104739188Y-130958114D01*
X104203213Y-131023924D01*
G37*
G36*
X97850917Y-131803887D02*
G01*
X97729048Y-130811341D01*
X98265023Y-130745531D01*
X98386892Y-131738077D01*
X97850917Y-131803887D01*
G37*
G36*
X103409176Y-131121419D02*
G01*
X103287307Y-130128873D01*
X103823282Y-130063063D01*
X103945151Y-131055609D01*
X103409176Y-131121419D01*
G37*
G36*
X98644954Y-131706392D02*
G01*
X98523085Y-130713846D01*
X99059060Y-130648036D01*
X99180929Y-131640582D01*
X98644954Y-131706392D01*
G37*
G36*
X102386854Y-131246944D02*
G01*
X102264984Y-130254398D01*
X102562748Y-130217838D01*
X102684618Y-131210384D01*
X102386854Y-131246944D01*
G37*
G36*
X101394307Y-131368813D02*
G01*
X101272437Y-130376267D01*
X101570201Y-130339707D01*
X101692071Y-131332253D01*
X101394307Y-131368813D01*
G37*
G36*
X100898034Y-131429748D02*
G01*
X100776164Y-130437202D01*
X101073928Y-130400642D01*
X101195798Y-131393188D01*
X100898034Y-131429748D01*
G37*
G36*
X99905488Y-131551617D02*
G01*
X99783618Y-130559071D01*
X100081382Y-130522511D01*
X100203252Y-131515057D01*
X99905488Y-131551617D01*
G37*
G36*
X99409215Y-131612552D02*
G01*
X99287345Y-130620006D01*
X99585109Y-130583446D01*
X99706979Y-131575992D01*
X99409215Y-131612552D01*
G37*
G36*
X100401761Y-131490682D02*
G01*
X100279891Y-130498136D01*
X100577655Y-130461576D01*
X100699525Y-131454122D01*
X100401761Y-131490682D01*
G37*
G36*
X101890581Y-131307878D02*
G01*
X101768711Y-130315332D01*
X102066475Y-130278772D01*
X102188345Y-131271318D01*
X101890581Y-131307878D01*
G37*
G36*
X102891067Y-131185034D02*
G01*
X102769197Y-130192488D01*
X103066961Y-130155928D01*
X103188831Y-131148474D01*
X102891067Y-131185034D01*
G37*
G36*
G01*
X95130981Y-131029592D02*
X95033485Y-130235556D01*
G75*
G02*
X95468823Y-129678348I496273J60935D01*
G01*
X95468823Y-129678348D01*
G75*
G02*
X96026031Y-130113686I60935J-496273D01*
G01*
X96123527Y-130907722D01*
G75*
G02*
X95688189Y-131464930I-496273J-60935D01*
G01*
X95688189Y-131464930D01*
G75*
G02*
X95130981Y-131029592I-60935J496273D01*
G01*
G37*
G36*
G01*
X105759737Y-126097511D02*
X105613493Y-124906455D01*
G75*
G02*
X106048831Y-124349247I496273J60935D01*
G01*
X106048831Y-124349247D01*
G75*
G02*
X106606039Y-124784585I60935J-496273D01*
G01*
X106752283Y-125975641D01*
G75*
G02*
X106316945Y-126532849I-496273J-60935D01*
G01*
X106316945Y-126532849D01*
G75*
G02*
X105759737Y-126097511I-60935J496273D01*
G01*
G37*
G36*
G01*
X94692252Y-127456427D02*
X94546008Y-126265371D01*
G75*
G02*
X94981346Y-125708163I496273J60935D01*
G01*
X94981346Y-125708163D01*
G75*
G02*
X95538554Y-126143501I60935J-496273D01*
G01*
X95684798Y-127334557D01*
G75*
G02*
X95249460Y-127891765I-496273J-60935D01*
G01*
X95249460Y-127891765D01*
G75*
G02*
X94692252Y-127456427I-60935J496273D01*
G01*
G37*
G36*
G01*
X106198764Y-129670640D02*
X106101268Y-128876604D01*
G75*
G02*
X106536606Y-128319396I496273J60935D01*
G01*
X106536606Y-128319396D01*
G75*
G02*
X107093814Y-128754734I60935J-496273D01*
G01*
X107191310Y-129548770D01*
G75*
G02*
X106755972Y-130105978I-496273J-60935D01*
G01*
X106755972Y-130105978D01*
G75*
G02*
X106198764Y-129670640I-60935J496273D01*
G01*
G37*
G36*
X196116839Y-181673554D02*
G01*
X196442407Y-180728035D01*
X196952987Y-180903842D01*
X196627419Y-181849361D01*
X196116839Y-181673554D01*
G37*
G36*
X202168158Y-183757191D02*
G01*
X202493726Y-182811672D01*
X203004306Y-182987479D01*
X202678738Y-183932998D01*
X202168158Y-183757191D01*
G37*
G36*
X201411743Y-183496736D02*
G01*
X201737311Y-182551217D01*
X202247891Y-182727024D01*
X201922323Y-183672543D01*
X201411743Y-183496736D01*
G37*
G36*
X196873254Y-181934009D02*
G01*
X197198822Y-180988490D01*
X197709402Y-181164297D01*
X197383834Y-182109816D01*
X196873254Y-181934009D01*
G37*
G36*
X200437859Y-183161401D02*
G01*
X200763427Y-182215882D01*
X201047083Y-182313553D01*
X200721515Y-183259072D01*
X200437859Y-183161401D01*
G37*
G36*
X199492340Y-182835832D02*
G01*
X199817908Y-181890313D01*
X200101564Y-181987984D01*
X199775996Y-182933503D01*
X199492340Y-182835832D01*
G37*
G36*
X199019581Y-182673048D02*
G01*
X199345149Y-181727529D01*
X199628805Y-181825200D01*
X199303237Y-182770719D01*
X199019581Y-182673048D01*
G37*
G36*
X198074062Y-182347480D02*
G01*
X198399630Y-181401961D01*
X198683286Y-181499632D01*
X198357718Y-182445151D01*
X198074062Y-182347480D01*
G37*
G36*
X197601303Y-182184696D02*
G01*
X197926871Y-181239177D01*
X198210527Y-181336848D01*
X197884959Y-182282367D01*
X197601303Y-182184696D01*
G37*
G36*
X198546821Y-182510264D02*
G01*
X198872389Y-181564745D01*
X199156045Y-181662416D01*
X198830477Y-182607935D01*
X198546821Y-182510264D01*
G37*
G36*
X199965099Y-182998617D02*
G01*
X200290667Y-182053098D01*
X200574323Y-182150769D01*
X200248755Y-183096288D01*
X199965099Y-182998617D01*
G37*
G36*
X200918182Y-183326789D02*
G01*
X201243750Y-182381270D01*
X201527406Y-182478941D01*
X201201838Y-183424460D01*
X200918182Y-183326789D01*
G37*
G36*
G01*
X194011605Y-179785281D02*
X194272059Y-179028867D01*
G75*
G02*
X194907602Y-178718892I472759J-162784D01*
G01*
X194907602Y-178718892D01*
G75*
G02*
X195217577Y-179354435I-162784J-472759D01*
G01*
X194957123Y-180110849D01*
G75*
G02*
X194321580Y-180420824I-472759J162784D01*
G01*
X194321580Y-180420824D01*
G75*
G02*
X194011605Y-179785281I162784J472759D01*
G01*
G37*
G36*
G01*
X195183650Y-176381414D02*
X195574332Y-175246792D01*
G75*
G02*
X196209875Y-174936817I472759J-162784D01*
G01*
X196209875Y-174936817D01*
G75*
G02*
X196519850Y-175572360I-162784J-472759D01*
G01*
X196129168Y-176706982D01*
G75*
G02*
X195493625Y-177016957I-472759J162784D01*
G01*
X195493625Y-177016957D01*
G75*
G02*
X195183650Y-176381414I162784J472759D01*
G01*
G37*
G36*
G01*
X205726749Y-180011694D02*
X206117431Y-178877072D01*
G75*
G02*
X206752974Y-178567097I472759J-162784D01*
G01*
X206752974Y-178567097D01*
G75*
G02*
X207062949Y-179202640I-162784J-472759D01*
G01*
X206672267Y-180337262D01*
G75*
G02*
X206036724Y-180647237I-472759J162784D01*
G01*
X206036724Y-180647237D01*
G75*
G02*
X205726749Y-180011694I162784J472759D01*
G01*
G37*
G36*
G01*
X204554988Y-183415659D02*
X204815442Y-182659245D01*
G75*
G02*
X205450985Y-182349270I472759J-162784D01*
G01*
X205450985Y-182349270D01*
G75*
G02*
X205760960Y-182984813I-162784J-472759D01*
G01*
X205500506Y-183741227D01*
G75*
G02*
X204864963Y-184051202I-472759J162784D01*
G01*
X204864963Y-184051202D01*
G75*
G02*
X204554988Y-183415659I162784J472759D01*
G01*
G37*
G36*
X219428063Y-183936257D02*
G01*
X219102495Y-182990738D01*
X219613075Y-182814931D01*
X219938643Y-183760450D01*
X219428063Y-183936257D01*
G37*
G36*
X225479382Y-181852621D02*
G01*
X225153814Y-180907102D01*
X225664394Y-180731295D01*
X225989962Y-181676814D01*
X225479382Y-181852621D01*
G37*
G36*
X224722967Y-182113076D02*
G01*
X224397399Y-181167557D01*
X224907979Y-180991750D01*
X225233547Y-181937269D01*
X224722967Y-182113076D01*
G37*
G36*
X220184478Y-183675803D02*
G01*
X219858910Y-182730284D01*
X220369490Y-182554477D01*
X220695058Y-183499996D01*
X220184478Y-183675803D01*
G37*
G36*
X223749083Y-182448411D02*
G01*
X223423515Y-181502892D01*
X223707171Y-181405221D01*
X224032739Y-182350740D01*
X223749083Y-182448411D01*
G37*
G36*
X222803564Y-182773979D02*
G01*
X222477996Y-181828460D01*
X222761652Y-181730789D01*
X223087220Y-182676308D01*
X222803564Y-182773979D01*
G37*
G36*
X222330805Y-182936763D02*
G01*
X222005237Y-181991244D01*
X222288893Y-181893573D01*
X222614461Y-182839092D01*
X222330805Y-182936763D01*
G37*
G36*
X221385286Y-183262331D02*
G01*
X221059718Y-182316812D01*
X221343374Y-182219141D01*
X221668942Y-183164660D01*
X221385286Y-183262331D01*
G37*
G36*
X220912527Y-183425115D02*
G01*
X220586959Y-182479596D01*
X220870615Y-182381925D01*
X221196183Y-183327444D01*
X220912527Y-183425115D01*
G37*
G36*
X221858046Y-183099547D02*
G01*
X221532478Y-182154028D01*
X221816134Y-182056357D01*
X222141702Y-183001876D01*
X221858046Y-183099547D01*
G37*
G36*
X223276323Y-182611195D02*
G01*
X222950755Y-181665676D01*
X223234411Y-181568005D01*
X223559979Y-182513524D01*
X223276323Y-182611195D01*
G37*
G36*
X224229406Y-182283022D02*
G01*
X223903838Y-181337503D01*
X224187494Y-181239832D01*
X224513062Y-182185351D01*
X224229406Y-182283022D01*
G37*
G36*
G01*
X227149962Y-180114011D02*
X226889508Y-179357597D01*
G75*
G02*
X227199483Y-178722054I472759J162784D01*
G01*
X227199483Y-178722054D01*
G75*
G02*
X227835026Y-179032029I162784J-472759D01*
G01*
X228095480Y-179788443D01*
G75*
G02*
X227785505Y-180423986I-472759J-162784D01*
G01*
X227785505Y-180423986D01*
G75*
G02*
X227149962Y-180114011I-162784J472759D01*
G01*
G37*
G36*
G01*
X216606579Y-183744389D02*
X216346125Y-182987975D01*
G75*
G02*
X216656100Y-182352432I472759J162784D01*
G01*
X216656100Y-182352432D01*
G75*
G02*
X217291643Y-182662407I162784J-472759D01*
G01*
X217552097Y-183418821D01*
G75*
G02*
X217242122Y-184054364I-472759J-162784D01*
G01*
X217242122Y-184054364D01*
G75*
G02*
X216606579Y-183744389I-162784J472759D01*
G01*
G37*
G36*
G01*
X215434534Y-180340522D02*
X215043852Y-179205900D01*
G75*
G02*
X215353827Y-178570357I472759J162784D01*
G01*
X215353827Y-178570357D01*
G75*
G02*
X215989370Y-178880332I162784J-472759D01*
G01*
X216380052Y-180014954D01*
G75*
G02*
X216070077Y-180650497I-472759J-162784D01*
G01*
X216070077Y-180650497D01*
G75*
G02*
X215434534Y-180340522I-162784J472759D01*
G01*
G37*
G36*
G01*
X225977633Y-176710242D02*
X225586951Y-175575620D01*
G75*
G02*
X225896926Y-174940077I472759J162784D01*
G01*
X225896926Y-174940077D01*
G75*
G02*
X226532469Y-175250052I162784J-472759D01*
G01*
X226923151Y-176384674D01*
G75*
G02*
X226613176Y-177020217I-472759J-162784D01*
G01*
X226613176Y-177020217D01*
G75*
G02*
X225977633Y-176710242I-162784J472759D01*
G01*
G37*
G36*
G01*
X105620962Y-131023911D02*
X106092421Y-130966023D01*
G75*
G02*
X106357095Y-131172809I28944J-235730D01*
G01*
X106418030Y-131669083D01*
G75*
G02*
X106211244Y-131933757I-235730J-28944D01*
G01*
X105739785Y-131991645D01*
G75*
G02*
X105475111Y-131784859I-28944J235730D01*
G01*
X105414176Y-131288585D01*
G75*
G02*
X105620962Y-131023911I235730J28944D01*
G01*
G37*
G36*
G01*
X105843374Y-132835307D02*
X106314833Y-132777419D01*
G75*
G02*
X106579507Y-132984205I28944J-235730D01*
G01*
X106640442Y-133480479D01*
G75*
G02*
X106433656Y-133745153I-235730J-28944D01*
G01*
X105962197Y-133803041D01*
G75*
G02*
X105697523Y-133596255I-28944J235730D01*
G01*
X105636588Y-133099981D01*
G75*
G02*
X105843374Y-132835307I235730J28944D01*
G01*
G37*
G36*
G01*
X96587092Y-132119089D02*
X97058551Y-132061201D01*
G75*
G02*
X97323225Y-132267987I28944J-235730D01*
G01*
X97384160Y-132764261D01*
G75*
G02*
X97177374Y-133028935I-235730J-28944D01*
G01*
X96705915Y-133086823D01*
G75*
G02*
X96441241Y-132880037I-28944J235730D01*
G01*
X96380306Y-132383763D01*
G75*
G02*
X96587092Y-132119089I235730J28944D01*
G01*
G37*
G36*
G01*
X96809504Y-133930485D02*
X97280963Y-133872597D01*
G75*
G02*
X97545637Y-134079383I28944J-235730D01*
G01*
X97606572Y-134575657D01*
G75*
G02*
X97399786Y-134840331I-235730J-28944D01*
G01*
X96928327Y-134898219D01*
G75*
G02*
X96663653Y-134691433I-28944J235730D01*
G01*
X96602718Y-134195159D01*
G75*
G02*
X96809504Y-133930485I235730J28944D01*
G01*
G37*
G36*
G01*
X279811206Y-186748380D02*
X279811206Y-187223380D01*
G75*
G02*
X279573706Y-187460880I-237500J0D01*
G01*
X279073706Y-187460880D01*
G75*
G02*
X278836206Y-187223380I0J237500D01*
G01*
X278836206Y-186748380D01*
G75*
G02*
X279073706Y-186510880I237500J0D01*
G01*
X279573706Y-186510880D01*
G75*
G02*
X279811206Y-186748380I0J-237500D01*
G01*
G37*
G36*
G01*
X277986206Y-186748380D02*
X277986206Y-187223380D01*
G75*
G02*
X277748706Y-187460880I-237500J0D01*
G01*
X277248706Y-187460880D01*
G75*
G02*
X277011206Y-187223380I0J237500D01*
G01*
X277011206Y-186748380D01*
G75*
G02*
X277248706Y-186510880I237500J0D01*
G01*
X277748706Y-186510880D01*
G75*
G02*
X277986206Y-186748380I0J-237500D01*
G01*
G37*
G36*
G01*
X282598706Y-176735877D02*
X283073706Y-176735877D01*
G75*
G02*
X283311206Y-176973377I0J-237500D01*
G01*
X283311206Y-177473377D01*
G75*
G02*
X283073706Y-177710877I-237500J0D01*
G01*
X282598706Y-177710877D01*
G75*
G02*
X282361206Y-177473377I0J237500D01*
G01*
X282361206Y-176973377D01*
G75*
G02*
X282598706Y-176735877I237500J0D01*
G01*
G37*
G36*
G01*
X282598706Y-178560877D02*
X283073706Y-178560877D01*
G75*
G02*
X283311206Y-178798377I0J-237500D01*
G01*
X283311206Y-179298377D01*
G75*
G02*
X283073706Y-179535877I-237500J0D01*
G01*
X282598706Y-179535877D01*
G75*
G02*
X282361206Y-179298377I0J237500D01*
G01*
X282361206Y-178798377D01*
G75*
G02*
X282598706Y-178560877I237500J0D01*
G01*
G37*
G36*
G01*
X280648703Y-176710878D02*
X281123703Y-176710878D01*
G75*
G02*
X281361203Y-176948378I0J-237500D01*
G01*
X281361203Y-177448378D01*
G75*
G02*
X281123703Y-177685878I-237500J0D01*
G01*
X280648703Y-177685878D01*
G75*
G02*
X280411203Y-177448378I0J237500D01*
G01*
X280411203Y-176948378D01*
G75*
G02*
X280648703Y-176710878I237500J0D01*
G01*
G37*
G36*
G01*
X280648703Y-178535878D02*
X281123703Y-178535878D01*
G75*
G02*
X281361203Y-178773378I0J-237500D01*
G01*
X281361203Y-179273378D01*
G75*
G02*
X281123703Y-179510878I-237500J0D01*
G01*
X280648703Y-179510878D01*
G75*
G02*
X280411203Y-179273378I0J237500D01*
G01*
X280411203Y-178773378D01*
G75*
G02*
X280648703Y-178535878I237500J0D01*
G01*
G37*
G36*
X99922582Y-133537100D02*
G01*
X99843367Y-132891945D01*
X100895466Y-132762764D01*
X100974681Y-133407919D01*
X99922582Y-133537100D01*
G37*
G36*
X100038358Y-134480019D02*
G01*
X99959143Y-133834864D01*
X101011242Y-133705683D01*
X101090457Y-134350838D01*
X100038358Y-134480019D01*
G37*
G36*
X100154134Y-135422938D02*
G01*
X100074919Y-134777783D01*
X101127018Y-134648602D01*
X101206233Y-135293757D01*
X100154134Y-135422938D01*
G37*
G36*
X102337736Y-135154826D02*
G01*
X102258521Y-134509671D01*
X103310620Y-134380490D01*
X103389835Y-135025645D01*
X102337736Y-135154826D01*
G37*
G36*
X102221960Y-134211907D02*
G01*
X102142745Y-133566752D01*
X103194844Y-133437571D01*
X103274059Y-134082726D01*
X102221960Y-134211907D01*
G37*
G36*
X102106184Y-133268988D02*
G01*
X102026969Y-132623833D01*
X103079068Y-132494652D01*
X103158283Y-133139807D01*
X102106184Y-133268988D01*
G37*
G36*
X117102413Y-141330538D02*
G01*
X116956170Y-140139483D01*
X117849461Y-140029800D01*
X117995704Y-141220855D01*
X117102413Y-141330538D01*
G37*
G36*
X120377815Y-140928370D02*
G01*
X120231572Y-139737315D01*
X121124863Y-139627632D01*
X121271106Y-140818687D01*
X120377815Y-140928370D01*
G37*
G36*
G01*
X141443394Y-189717884D02*
X141443394Y-190192884D01*
G75*
G02*
X141205894Y-190430384I-237500J0D01*
G01*
X140605894Y-190430384D01*
G75*
G02*
X140368394Y-190192884I0J237500D01*
G01*
X140368394Y-189717884D01*
G75*
G02*
X140605894Y-189480384I237500J0D01*
G01*
X141205894Y-189480384D01*
G75*
G02*
X141443394Y-189717884I0J-237500D01*
G01*
G37*
G36*
G01*
X139718394Y-189717884D02*
X139718394Y-190192884D01*
G75*
G02*
X139480894Y-190430384I-237500J0D01*
G01*
X138880894Y-190430384D01*
G75*
G02*
X138643394Y-190192884I0J237500D01*
G01*
X138643394Y-189717884D01*
G75*
G02*
X138880894Y-189480384I237500J0D01*
G01*
X139480894Y-189480384D01*
G75*
G02*
X139718394Y-189717884I0J-237500D01*
G01*
G37*
G36*
G01*
X133833957Y-178029510D02*
X133833957Y-177554510D01*
G75*
G02*
X134071457Y-177317010I237500J0D01*
G01*
X134671457Y-177317010D01*
G75*
G02*
X134908957Y-177554510I0J-237500D01*
G01*
X134908957Y-178029510D01*
G75*
G02*
X134671457Y-178267010I-237500J0D01*
G01*
X134071457Y-178267010D01*
G75*
G02*
X133833957Y-178029510I0J237500D01*
G01*
G37*
G36*
G01*
X135558957Y-178029510D02*
X135558957Y-177554510D01*
G75*
G02*
X135796457Y-177317010I237500J0D01*
G01*
X136396457Y-177317010D01*
G75*
G02*
X136633957Y-177554510I0J-237500D01*
G01*
X136633957Y-178029510D01*
G75*
G02*
X136396457Y-178267010I-237500J0D01*
G01*
X135796457Y-178267010D01*
G75*
G02*
X135558957Y-178029510I0J237500D01*
G01*
G37*
G36*
G01*
X142111844Y-179910680D02*
X142111844Y-179435680D01*
G75*
G02*
X142349344Y-179198180I237500J0D01*
G01*
X142949344Y-179198180D01*
G75*
G02*
X143186844Y-179435680I0J-237500D01*
G01*
X143186844Y-179910680D01*
G75*
G02*
X142949344Y-180148180I-237500J0D01*
G01*
X142349344Y-180148180D01*
G75*
G02*
X142111844Y-179910680I0J237500D01*
G01*
G37*
G36*
G01*
X143836844Y-179910680D02*
X143836844Y-179435680D01*
G75*
G02*
X144074344Y-179198180I237500J0D01*
G01*
X144674344Y-179198180D01*
G75*
G02*
X144911844Y-179435680I0J-237500D01*
G01*
X144911844Y-179910680D01*
G75*
G02*
X144674344Y-180148180I-237500J0D01*
G01*
X144074344Y-180148180D01*
G75*
G02*
X143836844Y-179910680I0J237500D01*
G01*
G37*
G36*
G01*
X142111856Y-178196173D02*
X142111856Y-177721173D01*
G75*
G02*
X142349356Y-177483673I237500J0D01*
G01*
X142949356Y-177483673D01*
G75*
G02*
X143186856Y-177721173I0J-237500D01*
G01*
X143186856Y-178196173D01*
G75*
G02*
X142949356Y-178433673I-237500J0D01*
G01*
X142349356Y-178433673D01*
G75*
G02*
X142111856Y-178196173I0J237500D01*
G01*
G37*
G36*
G01*
X143836856Y-178196173D02*
X143836856Y-177721173D01*
G75*
G02*
X144074356Y-177483673I237500J0D01*
G01*
X144674356Y-177483673D01*
G75*
G02*
X144911856Y-177721173I0J-237500D01*
G01*
X144911856Y-178196173D01*
G75*
G02*
X144674356Y-178433673I-237500J0D01*
G01*
X144074356Y-178433673D01*
G75*
G02*
X143836856Y-178196173I0J237500D01*
G01*
G37*
G36*
G01*
X129489207Y-185685028D02*
X129964207Y-185685028D01*
G75*
G02*
X130201707Y-185922528I0J-237500D01*
G01*
X130201707Y-186522528D01*
G75*
G02*
X129964207Y-186760028I-237500J0D01*
G01*
X129489207Y-186760028D01*
G75*
G02*
X129251707Y-186522528I0J237500D01*
G01*
X129251707Y-185922528D01*
G75*
G02*
X129489207Y-185685028I237500J0D01*
G01*
G37*
G36*
G01*
X129489207Y-187410028D02*
X129964207Y-187410028D01*
G75*
G02*
X130201707Y-187647528I0J-237500D01*
G01*
X130201707Y-188247528D01*
G75*
G02*
X129964207Y-188485028I-237500J0D01*
G01*
X129489207Y-188485028D01*
G75*
G02*
X129251707Y-188247528I0J237500D01*
G01*
X129251707Y-187647528D01*
G75*
G02*
X129489207Y-187410028I237500J0D01*
G01*
G37*
G36*
G01*
X131643367Y-182032571D02*
X131643367Y-182507571D01*
G75*
G02*
X131405867Y-182745071I-237500J0D01*
G01*
X130805867Y-182745071D01*
G75*
G02*
X130568367Y-182507571I0J237500D01*
G01*
X130568367Y-182032571D01*
G75*
G02*
X130805867Y-181795071I237500J0D01*
G01*
X131405867Y-181795071D01*
G75*
G02*
X131643367Y-182032571I0J-237500D01*
G01*
G37*
G36*
G01*
X129918367Y-182032571D02*
X129918367Y-182507571D01*
G75*
G02*
X129680867Y-182745071I-237500J0D01*
G01*
X129080867Y-182745071D01*
G75*
G02*
X128843367Y-182507571I0J237500D01*
G01*
X128843367Y-182032571D01*
G75*
G02*
X129080867Y-181795071I237500J0D01*
G01*
X129680867Y-181795071D01*
G75*
G02*
X129918367Y-182032571I0J-237500D01*
G01*
G37*
G36*
G01*
X128183218Y-186644325D02*
X128183218Y-187119325D01*
G75*
G02*
X127945718Y-187356825I-237500J0D01*
G01*
X127345718Y-187356825D01*
G75*
G02*
X127108218Y-187119325I0J237500D01*
G01*
X127108218Y-186644325D01*
G75*
G02*
X127345718Y-186406825I237500J0D01*
G01*
X127945718Y-186406825D01*
G75*
G02*
X128183218Y-186644325I0J-237500D01*
G01*
G37*
G36*
G01*
X126458218Y-186644325D02*
X126458218Y-187119325D01*
G75*
G02*
X126220718Y-187356825I-237500J0D01*
G01*
X125620718Y-187356825D01*
G75*
G02*
X125383218Y-187119325I0J237500D01*
G01*
X125383218Y-186644325D01*
G75*
G02*
X125620718Y-186406825I237500J0D01*
G01*
X126220718Y-186406825D01*
G75*
G02*
X126458218Y-186644325I0J-237500D01*
G01*
G37*
G36*
G01*
X131216407Y-185675344D02*
X131691407Y-185675344D01*
G75*
G02*
X131928907Y-185912844I0J-237500D01*
G01*
X131928907Y-186512844D01*
G75*
G02*
X131691407Y-186750344I-237500J0D01*
G01*
X131216407Y-186750344D01*
G75*
G02*
X130978907Y-186512844I0J237500D01*
G01*
X130978907Y-185912844D01*
G75*
G02*
X131216407Y-185675344I237500J0D01*
G01*
G37*
G36*
G01*
X131216407Y-187400344D02*
X131691407Y-187400344D01*
G75*
G02*
X131928907Y-187637844I0J-237500D01*
G01*
X131928907Y-188237844D01*
G75*
G02*
X131691407Y-188475344I-237500J0D01*
G01*
X131216407Y-188475344D01*
G75*
G02*
X130978907Y-188237844I0J237500D01*
G01*
X130978907Y-187637844D01*
G75*
G02*
X131216407Y-187400344I237500J0D01*
G01*
G37*
G36*
X327021913Y-157165480D02*
G01*
X326671067Y-158313046D01*
X325810393Y-158049912D01*
X326161239Y-156902346D01*
X327021913Y-157165480D01*
G37*
G36*
X323866107Y-156200654D02*
G01*
X323515261Y-157348220D01*
X322654587Y-157085086D01*
X323005433Y-155937520D01*
X323866107Y-156200654D01*
G37*
G36*
G01*
X131641914Y-183767709D02*
X131641914Y-184242709D01*
G75*
G02*
X131404414Y-184480209I-237500J0D01*
G01*
X130904414Y-184480209D01*
G75*
G02*
X130666914Y-184242709I0J237500D01*
G01*
X130666914Y-183767709D01*
G75*
G02*
X130904414Y-183530209I237500J0D01*
G01*
X131404414Y-183530209D01*
G75*
G02*
X131641914Y-183767709I0J-237500D01*
G01*
G37*
G36*
G01*
X129816914Y-183767709D02*
X129816914Y-184242709D01*
G75*
G02*
X129579414Y-184480209I-237500J0D01*
G01*
X129079414Y-184480209D01*
G75*
G02*
X128841914Y-184242709I0J237500D01*
G01*
X128841914Y-183767709D01*
G75*
G02*
X129079414Y-183530209I237500J0D01*
G01*
X129579414Y-183530209D01*
G75*
G02*
X129816914Y-183767709I0J-237500D01*
G01*
G37*
D11*
X192883637Y-176113451D03*
G36*
X193633815Y-177006330D02*
G01*
X194024497Y-175871708D01*
X194875463Y-176164720D01*
X194484781Y-177299342D01*
X193633815Y-177006330D01*
G37*
X191276255Y-175559985D03*
G36*
X189284429Y-175508716D02*
G01*
X189675111Y-174374094D01*
X190526077Y-174667106D01*
X190135395Y-175801728D01*
X189284429Y-175508716D01*
G37*
G36*
X189236280Y-177184330D02*
G01*
X189659518Y-175955156D01*
X190746864Y-176329560D01*
X190323626Y-177558734D01*
X189236280Y-177184330D01*
G37*
G36*
X192403767Y-178274983D02*
G01*
X192827005Y-177045809D01*
X193914351Y-177420213D01*
X193491113Y-178649387D01*
X192403767Y-178274983D01*
G37*
G36*
G01*
X132871608Y-181165882D02*
X132871608Y-181015882D01*
G75*
G02*
X132946608Y-180940882I75000J0D01*
G01*
X134271608Y-180940882D01*
G75*
G02*
X134346608Y-181015882I0J-75000D01*
G01*
X134346608Y-181165882D01*
G75*
G02*
X134271608Y-181240882I-75000J0D01*
G01*
X132946608Y-181240882D01*
G75*
G02*
X132871608Y-181165882I0J75000D01*
G01*
G37*
G36*
G01*
X132871608Y-181665882D02*
X132871608Y-181515882D01*
G75*
G02*
X132946608Y-181440882I75000J0D01*
G01*
X134271608Y-181440882D01*
G75*
G02*
X134346608Y-181515882I0J-75000D01*
G01*
X134346608Y-181665882D01*
G75*
G02*
X134271608Y-181740882I-75000J0D01*
G01*
X132946608Y-181740882D01*
G75*
G02*
X132871608Y-181665882I0J75000D01*
G01*
G37*
G36*
G01*
X132871608Y-182165882D02*
X132871608Y-182015882D01*
G75*
G02*
X132946608Y-181940882I75000J0D01*
G01*
X134271608Y-181940882D01*
G75*
G02*
X134346608Y-182015882I0J-75000D01*
G01*
X134346608Y-182165882D01*
G75*
G02*
X134271608Y-182240882I-75000J0D01*
G01*
X132946608Y-182240882D01*
G75*
G02*
X132871608Y-182165882I0J75000D01*
G01*
G37*
G36*
G01*
X132871608Y-182665882D02*
X132871608Y-182515882D01*
G75*
G02*
X132946608Y-182440882I75000J0D01*
G01*
X134271608Y-182440882D01*
G75*
G02*
X134346608Y-182515882I0J-75000D01*
G01*
X134346608Y-182665882D01*
G75*
G02*
X134271608Y-182740882I-75000J0D01*
G01*
X132946608Y-182740882D01*
G75*
G02*
X132871608Y-182665882I0J75000D01*
G01*
G37*
G36*
G01*
X132871608Y-183165882D02*
X132871608Y-183015882D01*
G75*
G02*
X132946608Y-182940882I75000J0D01*
G01*
X134271608Y-182940882D01*
G75*
G02*
X134346608Y-183015882I0J-75000D01*
G01*
X134346608Y-183165882D01*
G75*
G02*
X134271608Y-183240882I-75000J0D01*
G01*
X132946608Y-183240882D01*
G75*
G02*
X132871608Y-183165882I0J75000D01*
G01*
G37*
G36*
G01*
X132871608Y-183665882D02*
X132871608Y-183515882D01*
G75*
G02*
X132946608Y-183440882I75000J0D01*
G01*
X134271608Y-183440882D01*
G75*
G02*
X134346608Y-183515882I0J-75000D01*
G01*
X134346608Y-183665882D01*
G75*
G02*
X134271608Y-183740882I-75000J0D01*
G01*
X132946608Y-183740882D01*
G75*
G02*
X132871608Y-183665882I0J75000D01*
G01*
G37*
G36*
G01*
X132871608Y-184165882D02*
X132871608Y-184015882D01*
G75*
G02*
X132946608Y-183940882I75000J0D01*
G01*
X134271608Y-183940882D01*
G75*
G02*
X134346608Y-184015882I0J-75000D01*
G01*
X134346608Y-184165882D01*
G75*
G02*
X134271608Y-184240882I-75000J0D01*
G01*
X132946608Y-184240882D01*
G75*
G02*
X132871608Y-184165882I0J75000D01*
G01*
G37*
G36*
G01*
X132871608Y-184665882D02*
X132871608Y-184515882D01*
G75*
G02*
X132946608Y-184440882I75000J0D01*
G01*
X134271608Y-184440882D01*
G75*
G02*
X134346608Y-184515882I0J-75000D01*
G01*
X134346608Y-184665882D01*
G75*
G02*
X134271608Y-184740882I-75000J0D01*
G01*
X132946608Y-184740882D01*
G75*
G02*
X132871608Y-184665882I0J75000D01*
G01*
G37*
G36*
G01*
X132871608Y-185165882D02*
X132871608Y-185015882D01*
G75*
G02*
X132946608Y-184940882I75000J0D01*
G01*
X134271608Y-184940882D01*
G75*
G02*
X134346608Y-185015882I0J-75000D01*
G01*
X134346608Y-185165882D01*
G75*
G02*
X134271608Y-185240882I-75000J0D01*
G01*
X132946608Y-185240882D01*
G75*
G02*
X132871608Y-185165882I0J75000D01*
G01*
G37*
G36*
G01*
X132871608Y-185665882D02*
X132871608Y-185515882D01*
G75*
G02*
X132946608Y-185440882I75000J0D01*
G01*
X134271608Y-185440882D01*
G75*
G02*
X134346608Y-185515882I0J-75000D01*
G01*
X134346608Y-185665882D01*
G75*
G02*
X134271608Y-185740882I-75000J0D01*
G01*
X132946608Y-185740882D01*
G75*
G02*
X132871608Y-185665882I0J75000D01*
G01*
G37*
G36*
G01*
X132871608Y-186165882D02*
X132871608Y-186015882D01*
G75*
G02*
X132946608Y-185940882I75000J0D01*
G01*
X134271608Y-185940882D01*
G75*
G02*
X134346608Y-186015882I0J-75000D01*
G01*
X134346608Y-186165882D01*
G75*
G02*
X134271608Y-186240882I-75000J0D01*
G01*
X132946608Y-186240882D01*
G75*
G02*
X132871608Y-186165882I0J75000D01*
G01*
G37*
G36*
G01*
X132871608Y-186665882D02*
X132871608Y-186515882D01*
G75*
G02*
X132946608Y-186440882I75000J0D01*
G01*
X134271608Y-186440882D01*
G75*
G02*
X134346608Y-186515882I0J-75000D01*
G01*
X134346608Y-186665882D01*
G75*
G02*
X134271608Y-186740882I-75000J0D01*
G01*
X132946608Y-186740882D01*
G75*
G02*
X132871608Y-186665882I0J75000D01*
G01*
G37*
G36*
G01*
X134871608Y-188665882D02*
X134871608Y-187340882D01*
G75*
G02*
X134946608Y-187265882I75000J0D01*
G01*
X135096608Y-187265882D01*
G75*
G02*
X135171608Y-187340882I0J-75000D01*
G01*
X135171608Y-188665882D01*
G75*
G02*
X135096608Y-188740882I-75000J0D01*
G01*
X134946608Y-188740882D01*
G75*
G02*
X134871608Y-188665882I0J75000D01*
G01*
G37*
G36*
G01*
X135371608Y-188665882D02*
X135371608Y-187340882D01*
G75*
G02*
X135446608Y-187265882I75000J0D01*
G01*
X135596608Y-187265882D01*
G75*
G02*
X135671608Y-187340882I0J-75000D01*
G01*
X135671608Y-188665882D01*
G75*
G02*
X135596608Y-188740882I-75000J0D01*
G01*
X135446608Y-188740882D01*
G75*
G02*
X135371608Y-188665882I0J75000D01*
G01*
G37*
G36*
G01*
X135871608Y-188665882D02*
X135871608Y-187340882D01*
G75*
G02*
X135946608Y-187265882I75000J0D01*
G01*
X136096608Y-187265882D01*
G75*
G02*
X136171608Y-187340882I0J-75000D01*
G01*
X136171608Y-188665882D01*
G75*
G02*
X136096608Y-188740882I-75000J0D01*
G01*
X135946608Y-188740882D01*
G75*
G02*
X135871608Y-188665882I0J75000D01*
G01*
G37*
G36*
G01*
X136371608Y-188665882D02*
X136371608Y-187340882D01*
G75*
G02*
X136446608Y-187265882I75000J0D01*
G01*
X136596608Y-187265882D01*
G75*
G02*
X136671608Y-187340882I0J-75000D01*
G01*
X136671608Y-188665882D01*
G75*
G02*
X136596608Y-188740882I-75000J0D01*
G01*
X136446608Y-188740882D01*
G75*
G02*
X136371608Y-188665882I0J75000D01*
G01*
G37*
G36*
G01*
X136871608Y-188665882D02*
X136871608Y-187340882D01*
G75*
G02*
X136946608Y-187265882I75000J0D01*
G01*
X137096608Y-187265882D01*
G75*
G02*
X137171608Y-187340882I0J-75000D01*
G01*
X137171608Y-188665882D01*
G75*
G02*
X137096608Y-188740882I-75000J0D01*
G01*
X136946608Y-188740882D01*
G75*
G02*
X136871608Y-188665882I0J75000D01*
G01*
G37*
G36*
G01*
X137371608Y-188665882D02*
X137371608Y-187340882D01*
G75*
G02*
X137446608Y-187265882I75000J0D01*
G01*
X137596608Y-187265882D01*
G75*
G02*
X137671608Y-187340882I0J-75000D01*
G01*
X137671608Y-188665882D01*
G75*
G02*
X137596608Y-188740882I-75000J0D01*
G01*
X137446608Y-188740882D01*
G75*
G02*
X137371608Y-188665882I0J75000D01*
G01*
G37*
G36*
G01*
X137871608Y-188665882D02*
X137871608Y-187340882D01*
G75*
G02*
X137946608Y-187265882I75000J0D01*
G01*
X138096608Y-187265882D01*
G75*
G02*
X138171608Y-187340882I0J-75000D01*
G01*
X138171608Y-188665882D01*
G75*
G02*
X138096608Y-188740882I-75000J0D01*
G01*
X137946608Y-188740882D01*
G75*
G02*
X137871608Y-188665882I0J75000D01*
G01*
G37*
G36*
G01*
X138371608Y-188665882D02*
X138371608Y-187340882D01*
G75*
G02*
X138446608Y-187265882I75000J0D01*
G01*
X138596608Y-187265882D01*
G75*
G02*
X138671608Y-187340882I0J-75000D01*
G01*
X138671608Y-188665882D01*
G75*
G02*
X138596608Y-188740882I-75000J0D01*
G01*
X138446608Y-188740882D01*
G75*
G02*
X138371608Y-188665882I0J75000D01*
G01*
G37*
G36*
G01*
X138871608Y-188665882D02*
X138871608Y-187340882D01*
G75*
G02*
X138946608Y-187265882I75000J0D01*
G01*
X139096608Y-187265882D01*
G75*
G02*
X139171608Y-187340882I0J-75000D01*
G01*
X139171608Y-188665882D01*
G75*
G02*
X139096608Y-188740882I-75000J0D01*
G01*
X138946608Y-188740882D01*
G75*
G02*
X138871608Y-188665882I0J75000D01*
G01*
G37*
G36*
G01*
X139371608Y-188665882D02*
X139371608Y-187340882D01*
G75*
G02*
X139446608Y-187265882I75000J0D01*
G01*
X139596608Y-187265882D01*
G75*
G02*
X139671608Y-187340882I0J-75000D01*
G01*
X139671608Y-188665882D01*
G75*
G02*
X139596608Y-188740882I-75000J0D01*
G01*
X139446608Y-188740882D01*
G75*
G02*
X139371608Y-188665882I0J75000D01*
G01*
G37*
G36*
G01*
X139871608Y-188665882D02*
X139871608Y-187340882D01*
G75*
G02*
X139946608Y-187265882I75000J0D01*
G01*
X140096608Y-187265882D01*
G75*
G02*
X140171608Y-187340882I0J-75000D01*
G01*
X140171608Y-188665882D01*
G75*
G02*
X140096608Y-188740882I-75000J0D01*
G01*
X139946608Y-188740882D01*
G75*
G02*
X139871608Y-188665882I0J75000D01*
G01*
G37*
G36*
G01*
X140371608Y-188665882D02*
X140371608Y-187340882D01*
G75*
G02*
X140446608Y-187265882I75000J0D01*
G01*
X140596608Y-187265882D01*
G75*
G02*
X140671608Y-187340882I0J-75000D01*
G01*
X140671608Y-188665882D01*
G75*
G02*
X140596608Y-188740882I-75000J0D01*
G01*
X140446608Y-188740882D01*
G75*
G02*
X140371608Y-188665882I0J75000D01*
G01*
G37*
G36*
G01*
X141196608Y-186665882D02*
X141196608Y-186515882D01*
G75*
G02*
X141271608Y-186440882I75000J0D01*
G01*
X142596608Y-186440882D01*
G75*
G02*
X142671608Y-186515882I0J-75000D01*
G01*
X142671608Y-186665882D01*
G75*
G02*
X142596608Y-186740882I-75000J0D01*
G01*
X141271608Y-186740882D01*
G75*
G02*
X141196608Y-186665882I0J75000D01*
G01*
G37*
G36*
G01*
X141196608Y-186165882D02*
X141196608Y-186015882D01*
G75*
G02*
X141271608Y-185940882I75000J0D01*
G01*
X142596608Y-185940882D01*
G75*
G02*
X142671608Y-186015882I0J-75000D01*
G01*
X142671608Y-186165882D01*
G75*
G02*
X142596608Y-186240882I-75000J0D01*
G01*
X141271608Y-186240882D01*
G75*
G02*
X141196608Y-186165882I0J75000D01*
G01*
G37*
G36*
G01*
X141196608Y-185665882D02*
X141196608Y-185515882D01*
G75*
G02*
X141271608Y-185440882I75000J0D01*
G01*
X142596608Y-185440882D01*
G75*
G02*
X142671608Y-185515882I0J-75000D01*
G01*
X142671608Y-185665882D01*
G75*
G02*
X142596608Y-185740882I-75000J0D01*
G01*
X141271608Y-185740882D01*
G75*
G02*
X141196608Y-185665882I0J75000D01*
G01*
G37*
G36*
G01*
X141196608Y-185165882D02*
X141196608Y-185015882D01*
G75*
G02*
X141271608Y-184940882I75000J0D01*
G01*
X142596608Y-184940882D01*
G75*
G02*
X142671608Y-185015882I0J-75000D01*
G01*
X142671608Y-185165882D01*
G75*
G02*
X142596608Y-185240882I-75000J0D01*
G01*
X141271608Y-185240882D01*
G75*
G02*
X141196608Y-185165882I0J75000D01*
G01*
G37*
G36*
G01*
X141196608Y-184665882D02*
X141196608Y-184515882D01*
G75*
G02*
X141271608Y-184440882I75000J0D01*
G01*
X142596608Y-184440882D01*
G75*
G02*
X142671608Y-184515882I0J-75000D01*
G01*
X142671608Y-184665882D01*
G75*
G02*
X142596608Y-184740882I-75000J0D01*
G01*
X141271608Y-184740882D01*
G75*
G02*
X141196608Y-184665882I0J75000D01*
G01*
G37*
G36*
G01*
X141196608Y-184165882D02*
X141196608Y-184015882D01*
G75*
G02*
X141271608Y-183940882I75000J0D01*
G01*
X142596608Y-183940882D01*
G75*
G02*
X142671608Y-184015882I0J-75000D01*
G01*
X142671608Y-184165882D01*
G75*
G02*
X142596608Y-184240882I-75000J0D01*
G01*
X141271608Y-184240882D01*
G75*
G02*
X141196608Y-184165882I0J75000D01*
G01*
G37*
G36*
G01*
X141196608Y-183665882D02*
X141196608Y-183515882D01*
G75*
G02*
X141271608Y-183440882I75000J0D01*
G01*
X142596608Y-183440882D01*
G75*
G02*
X142671608Y-183515882I0J-75000D01*
G01*
X142671608Y-183665882D01*
G75*
G02*
X142596608Y-183740882I-75000J0D01*
G01*
X141271608Y-183740882D01*
G75*
G02*
X141196608Y-183665882I0J75000D01*
G01*
G37*
G36*
G01*
X141196608Y-183165882D02*
X141196608Y-183015882D01*
G75*
G02*
X141271608Y-182940882I75000J0D01*
G01*
X142596608Y-182940882D01*
G75*
G02*
X142671608Y-183015882I0J-75000D01*
G01*
X142671608Y-183165882D01*
G75*
G02*
X142596608Y-183240882I-75000J0D01*
G01*
X141271608Y-183240882D01*
G75*
G02*
X141196608Y-183165882I0J75000D01*
G01*
G37*
G36*
G01*
X141196608Y-182665882D02*
X141196608Y-182515882D01*
G75*
G02*
X141271608Y-182440882I75000J0D01*
G01*
X142596608Y-182440882D01*
G75*
G02*
X142671608Y-182515882I0J-75000D01*
G01*
X142671608Y-182665882D01*
G75*
G02*
X142596608Y-182740882I-75000J0D01*
G01*
X141271608Y-182740882D01*
G75*
G02*
X141196608Y-182665882I0J75000D01*
G01*
G37*
G36*
G01*
X141196608Y-182165882D02*
X141196608Y-182015882D01*
G75*
G02*
X141271608Y-181940882I75000J0D01*
G01*
X142596608Y-181940882D01*
G75*
G02*
X142671608Y-182015882I0J-75000D01*
G01*
X142671608Y-182165882D01*
G75*
G02*
X142596608Y-182240882I-75000J0D01*
G01*
X141271608Y-182240882D01*
G75*
G02*
X141196608Y-182165882I0J75000D01*
G01*
G37*
G36*
G01*
X141196608Y-181665882D02*
X141196608Y-181515882D01*
G75*
G02*
X141271608Y-181440882I75000J0D01*
G01*
X142596608Y-181440882D01*
G75*
G02*
X142671608Y-181515882I0J-75000D01*
G01*
X142671608Y-181665882D01*
G75*
G02*
X142596608Y-181740882I-75000J0D01*
G01*
X141271608Y-181740882D01*
G75*
G02*
X141196608Y-181665882I0J75000D01*
G01*
G37*
G36*
G01*
X141196608Y-181165882D02*
X141196608Y-181015882D01*
G75*
G02*
X141271608Y-180940882I75000J0D01*
G01*
X142596608Y-180940882D01*
G75*
G02*
X142671608Y-181015882I0J-75000D01*
G01*
X142671608Y-181165882D01*
G75*
G02*
X142596608Y-181240882I-75000J0D01*
G01*
X141271608Y-181240882D01*
G75*
G02*
X141196608Y-181165882I0J75000D01*
G01*
G37*
G36*
G01*
X140371608Y-180340882D02*
X140371608Y-179015882D01*
G75*
G02*
X140446608Y-178940882I75000J0D01*
G01*
X140596608Y-178940882D01*
G75*
G02*
X140671608Y-179015882I0J-75000D01*
G01*
X140671608Y-180340882D01*
G75*
G02*
X140596608Y-180415882I-75000J0D01*
G01*
X140446608Y-180415882D01*
G75*
G02*
X140371608Y-180340882I0J75000D01*
G01*
G37*
G36*
G01*
X139871608Y-180340882D02*
X139871608Y-179015882D01*
G75*
G02*
X139946608Y-178940882I75000J0D01*
G01*
X140096608Y-178940882D01*
G75*
G02*
X140171608Y-179015882I0J-75000D01*
G01*
X140171608Y-180340882D01*
G75*
G02*
X140096608Y-180415882I-75000J0D01*
G01*
X139946608Y-180415882D01*
G75*
G02*
X139871608Y-180340882I0J75000D01*
G01*
G37*
G36*
G01*
X139371608Y-180340882D02*
X139371608Y-179015882D01*
G75*
G02*
X139446608Y-178940882I75000J0D01*
G01*
X139596608Y-178940882D01*
G75*
G02*
X139671608Y-179015882I0J-75000D01*
G01*
X139671608Y-180340882D01*
G75*
G02*
X139596608Y-180415882I-75000J0D01*
G01*
X139446608Y-180415882D01*
G75*
G02*
X139371608Y-180340882I0J75000D01*
G01*
G37*
G36*
G01*
X138871608Y-180340882D02*
X138871608Y-179015882D01*
G75*
G02*
X138946608Y-178940882I75000J0D01*
G01*
X139096608Y-178940882D01*
G75*
G02*
X139171608Y-179015882I0J-75000D01*
G01*
X139171608Y-180340882D01*
G75*
G02*
X139096608Y-180415882I-75000J0D01*
G01*
X138946608Y-180415882D01*
G75*
G02*
X138871608Y-180340882I0J75000D01*
G01*
G37*
G36*
G01*
X138371608Y-180340882D02*
X138371608Y-179015882D01*
G75*
G02*
X138446608Y-178940882I75000J0D01*
G01*
X138596608Y-178940882D01*
G75*
G02*
X138671608Y-179015882I0J-75000D01*
G01*
X138671608Y-180340882D01*
G75*
G02*
X138596608Y-180415882I-75000J0D01*
G01*
X138446608Y-180415882D01*
G75*
G02*
X138371608Y-180340882I0J75000D01*
G01*
G37*
G36*
G01*
X137871608Y-180340882D02*
X137871608Y-179015882D01*
G75*
G02*
X137946608Y-178940882I75000J0D01*
G01*
X138096608Y-178940882D01*
G75*
G02*
X138171608Y-179015882I0J-75000D01*
G01*
X138171608Y-180340882D01*
G75*
G02*
X138096608Y-180415882I-75000J0D01*
G01*
X137946608Y-180415882D01*
G75*
G02*
X137871608Y-180340882I0J75000D01*
G01*
G37*
G36*
G01*
X137371608Y-180340882D02*
X137371608Y-179015882D01*
G75*
G02*
X137446608Y-178940882I75000J0D01*
G01*
X137596608Y-178940882D01*
G75*
G02*
X137671608Y-179015882I0J-75000D01*
G01*
X137671608Y-180340882D01*
G75*
G02*
X137596608Y-180415882I-75000J0D01*
G01*
X137446608Y-180415882D01*
G75*
G02*
X137371608Y-180340882I0J75000D01*
G01*
G37*
G36*
G01*
X136871608Y-180340882D02*
X136871608Y-179015882D01*
G75*
G02*
X136946608Y-178940882I75000J0D01*
G01*
X137096608Y-178940882D01*
G75*
G02*
X137171608Y-179015882I0J-75000D01*
G01*
X137171608Y-180340882D01*
G75*
G02*
X137096608Y-180415882I-75000J0D01*
G01*
X136946608Y-180415882D01*
G75*
G02*
X136871608Y-180340882I0J75000D01*
G01*
G37*
G36*
G01*
X136371608Y-180340882D02*
X136371608Y-179015882D01*
G75*
G02*
X136446608Y-178940882I75000J0D01*
G01*
X136596608Y-178940882D01*
G75*
G02*
X136671608Y-179015882I0J-75000D01*
G01*
X136671608Y-180340882D01*
G75*
G02*
X136596608Y-180415882I-75000J0D01*
G01*
X136446608Y-180415882D01*
G75*
G02*
X136371608Y-180340882I0J75000D01*
G01*
G37*
G36*
G01*
X135871608Y-180340882D02*
X135871608Y-179015882D01*
G75*
G02*
X135946608Y-178940882I75000J0D01*
G01*
X136096608Y-178940882D01*
G75*
G02*
X136171608Y-179015882I0J-75000D01*
G01*
X136171608Y-180340882D01*
G75*
G02*
X136096608Y-180415882I-75000J0D01*
G01*
X135946608Y-180415882D01*
G75*
G02*
X135871608Y-180340882I0J75000D01*
G01*
G37*
G36*
G01*
X135371608Y-180340882D02*
X135371608Y-179015882D01*
G75*
G02*
X135446608Y-178940882I75000J0D01*
G01*
X135596608Y-178940882D01*
G75*
G02*
X135671608Y-179015882I0J-75000D01*
G01*
X135671608Y-180340882D01*
G75*
G02*
X135596608Y-180415882I-75000J0D01*
G01*
X135446608Y-180415882D01*
G75*
G02*
X135371608Y-180340882I0J75000D01*
G01*
G37*
G36*
G01*
X134871608Y-180340882D02*
X134871608Y-179015882D01*
G75*
G02*
X134946608Y-178940882I75000J0D01*
G01*
X135096608Y-178940882D01*
G75*
G02*
X135171608Y-179015882I0J-75000D01*
G01*
X135171608Y-180340882D01*
G75*
G02*
X135096608Y-180415882I-75000J0D01*
G01*
X134946608Y-180415882D01*
G75*
G02*
X134871608Y-180340882I0J75000D01*
G01*
G37*
D12*
X124972826Y-181764550D03*
X124972826Y-184664550D03*
X127272826Y-184664550D03*
X127272826Y-181764550D03*
D13*
X106742954Y-155590929D03*
X112298033Y-173760723D03*
X170953503Y-141208340D03*
X168068672Y-178711590D03*
X189280010Y-183023026D03*
X232836239Y-183023017D03*
X254047573Y-178711598D03*
X251162731Y-141208338D03*
X315373274Y-155590935D03*
X309818206Y-173760729D03*
G36*
G01*
X132658067Y-179692894D02*
X132183067Y-179692894D01*
G75*
G02*
X131945567Y-179455394I0J237500D01*
G01*
X131945567Y-178855394D01*
G75*
G02*
X132183067Y-178617894I237500J0D01*
G01*
X132658067Y-178617894D01*
G75*
G02*
X132895567Y-178855394I0J-237500D01*
G01*
X132895567Y-179455394D01*
G75*
G02*
X132658067Y-179692894I-237500J0D01*
G01*
G37*
G36*
G01*
X132658067Y-177967894D02*
X132183067Y-177967894D01*
G75*
G02*
X131945567Y-177730394I0J237500D01*
G01*
X131945567Y-177130394D01*
G75*
G02*
X132183067Y-176892894I237500J0D01*
G01*
X132658067Y-176892894D01*
G75*
G02*
X132895567Y-177130394I0J-237500D01*
G01*
X132895567Y-177730394D01*
G75*
G02*
X132658067Y-177967894I-237500J0D01*
G01*
G37*
D14*
X190153507Y-128427097D03*
X190153507Y-129020847D03*
X190153507Y-130802097D03*
X190153507Y-130208347D03*
X190153507Y-131989597D03*
X190153507Y-132583347D03*
X190153507Y-131395847D03*
X190153507Y-127833347D03*
X190153507Y-129614597D03*
X190153499Y-149989589D03*
X190153499Y-147614589D03*
X190153499Y-147020839D03*
X190153499Y-146427089D03*
X190153499Y-148802089D03*
X190153499Y-145833339D03*
X190153499Y-150583339D03*
X190153499Y-149395839D03*
X190153499Y-148208339D03*
X231962724Y-129020835D03*
X231962724Y-129614585D03*
X231962724Y-130802085D03*
X231962724Y-131395835D03*
X231962724Y-127833335D03*
X231962724Y-128427085D03*
X231962724Y-131989585D03*
X231962724Y-132583335D03*
X231962724Y-130208335D03*
X190153501Y-164427096D03*
X190153501Y-165020846D03*
X190153501Y-167395846D03*
X190153501Y-166802096D03*
X190153501Y-165614596D03*
X190153501Y-163833346D03*
X190153501Y-167989596D03*
X190153501Y-168583346D03*
X190153501Y-166208346D03*
X231962729Y-145833336D03*
X231962729Y-149395836D03*
X231962729Y-148208336D03*
X231962729Y-150583336D03*
X231962729Y-148802086D03*
X231962729Y-147020836D03*
X231962729Y-149989586D03*
X231962729Y-147614586D03*
X231962729Y-146427086D03*
X231962725Y-165614598D03*
X231962725Y-165020848D03*
X231962725Y-167395848D03*
X231962725Y-168583348D03*
X231962725Y-166208348D03*
X231962725Y-167989598D03*
X231962725Y-166802098D03*
X231962725Y-163833348D03*
X231962725Y-164427098D03*
G36*
G01*
X148053297Y-180128591D02*
X147578297Y-180128591D01*
G75*
G02*
X147340797Y-179891091I0J237500D01*
G01*
X147340797Y-179391091D01*
G75*
G02*
X147578297Y-179153591I237500J0D01*
G01*
X148053297Y-179153591D01*
G75*
G02*
X148290797Y-179391091I0J-237500D01*
G01*
X148290797Y-179891091D01*
G75*
G02*
X148053297Y-180128591I-237500J0D01*
G01*
G37*
G36*
G01*
X148053297Y-178303591D02*
X147578297Y-178303591D01*
G75*
G02*
X147340797Y-178066091I0J237500D01*
G01*
X147340797Y-177566091D01*
G75*
G02*
X147578297Y-177328591I237500J0D01*
G01*
X148053297Y-177328591D01*
G75*
G02*
X148290797Y-177566091I0J-237500D01*
G01*
X148290797Y-178066091D01*
G75*
G02*
X148053297Y-178303591I-237500J0D01*
G01*
G37*
G36*
G01*
X146529287Y-180128589D02*
X146054287Y-180128589D01*
G75*
G02*
X145816787Y-179891089I0J237500D01*
G01*
X145816787Y-179391089D01*
G75*
G02*
X146054287Y-179153589I237500J0D01*
G01*
X146529287Y-179153589D01*
G75*
G02*
X146766787Y-179391089I0J-237500D01*
G01*
X146766787Y-179891089D01*
G75*
G02*
X146529287Y-180128589I-237500J0D01*
G01*
G37*
G36*
G01*
X146529287Y-178303589D02*
X146054287Y-178303589D01*
G75*
G02*
X145816787Y-178066089I0J237500D01*
G01*
X145816787Y-177566089D01*
G75*
G02*
X146054287Y-177328589I237500J0D01*
G01*
X146529287Y-177328589D01*
G75*
G02*
X146766787Y-177566089I0J-237500D01*
G01*
X146766787Y-178066089D01*
G75*
G02*
X146529287Y-178303589I-237500J0D01*
G01*
G37*
G36*
G01*
X280839734Y-187441329D02*
X280639734Y-187441329D01*
G75*
G02*
X280539734Y-187341329I0J100000D01*
G01*
X280539734Y-186066329D01*
G75*
G02*
X280639734Y-185966329I100000J0D01*
G01*
X280839734Y-185966329D01*
G75*
G02*
X280939734Y-186066329I0J-100000D01*
G01*
X280939734Y-187341329D01*
G75*
G02*
X280839734Y-187441329I-100000J0D01*
G01*
G37*
G36*
G01*
X281489734Y-187441329D02*
X281289734Y-187441329D01*
G75*
G02*
X281189734Y-187341329I0J100000D01*
G01*
X281189734Y-186066329D01*
G75*
G02*
X281289734Y-185966329I100000J0D01*
G01*
X281489734Y-185966329D01*
G75*
G02*
X281589734Y-186066329I0J-100000D01*
G01*
X281589734Y-187341329D01*
G75*
G02*
X281489734Y-187441329I-100000J0D01*
G01*
G37*
G36*
G01*
X282139734Y-187441329D02*
X281939734Y-187441329D01*
G75*
G02*
X281839734Y-187341329I0J100000D01*
G01*
X281839734Y-186066329D01*
G75*
G02*
X281939734Y-185966329I100000J0D01*
G01*
X282139734Y-185966329D01*
G75*
G02*
X282239734Y-186066329I0J-100000D01*
G01*
X282239734Y-187341329D01*
G75*
G02*
X282139734Y-187441329I-100000J0D01*
G01*
G37*
G36*
G01*
X282789734Y-187441329D02*
X282589734Y-187441329D01*
G75*
G02*
X282489734Y-187341329I0J100000D01*
G01*
X282489734Y-186066329D01*
G75*
G02*
X282589734Y-185966329I100000J0D01*
G01*
X282789734Y-185966329D01*
G75*
G02*
X282889734Y-186066329I0J-100000D01*
G01*
X282889734Y-187341329D01*
G75*
G02*
X282789734Y-187441329I-100000J0D01*
G01*
G37*
G36*
G01*
X283439734Y-187441329D02*
X283239734Y-187441329D01*
G75*
G02*
X283139734Y-187341329I0J100000D01*
G01*
X283139734Y-186066329D01*
G75*
G02*
X283239734Y-185966329I100000J0D01*
G01*
X283439734Y-185966329D01*
G75*
G02*
X283539734Y-186066329I0J-100000D01*
G01*
X283539734Y-187341329D01*
G75*
G02*
X283439734Y-187441329I-100000J0D01*
G01*
G37*
G36*
G01*
X284089734Y-187441329D02*
X283889734Y-187441329D01*
G75*
G02*
X283789734Y-187341329I0J100000D01*
G01*
X283789734Y-186066329D01*
G75*
G02*
X283889734Y-185966329I100000J0D01*
G01*
X284089734Y-185966329D01*
G75*
G02*
X284189734Y-186066329I0J-100000D01*
G01*
X284189734Y-187341329D01*
G75*
G02*
X284089734Y-187441329I-100000J0D01*
G01*
G37*
G36*
G01*
X284739734Y-187441329D02*
X284539734Y-187441329D01*
G75*
G02*
X284439734Y-187341329I0J100000D01*
G01*
X284439734Y-186066329D01*
G75*
G02*
X284539734Y-185966329I100000J0D01*
G01*
X284739734Y-185966329D01*
G75*
G02*
X284839734Y-186066329I0J-100000D01*
G01*
X284839734Y-187341329D01*
G75*
G02*
X284739734Y-187441329I-100000J0D01*
G01*
G37*
G36*
G01*
X285389734Y-187441329D02*
X285189734Y-187441329D01*
G75*
G02*
X285089734Y-187341329I0J100000D01*
G01*
X285089734Y-186066329D01*
G75*
G02*
X285189734Y-185966329I100000J0D01*
G01*
X285389734Y-185966329D01*
G75*
G02*
X285489734Y-186066329I0J-100000D01*
G01*
X285489734Y-187341329D01*
G75*
G02*
X285389734Y-187441329I-100000J0D01*
G01*
G37*
G36*
G01*
X286039734Y-187441329D02*
X285839734Y-187441329D01*
G75*
G02*
X285739734Y-187341329I0J100000D01*
G01*
X285739734Y-186066329D01*
G75*
G02*
X285839734Y-185966329I100000J0D01*
G01*
X286039734Y-185966329D01*
G75*
G02*
X286139734Y-186066329I0J-100000D01*
G01*
X286139734Y-187341329D01*
G75*
G02*
X286039734Y-187441329I-100000J0D01*
G01*
G37*
G36*
G01*
X286689734Y-187441329D02*
X286489734Y-187441329D01*
G75*
G02*
X286389734Y-187341329I0J100000D01*
G01*
X286389734Y-186066329D01*
G75*
G02*
X286489734Y-185966329I100000J0D01*
G01*
X286689734Y-185966329D01*
G75*
G02*
X286789734Y-186066329I0J-100000D01*
G01*
X286789734Y-187341329D01*
G75*
G02*
X286689734Y-187441329I-100000J0D01*
G01*
G37*
G36*
G01*
X287339734Y-187441329D02*
X287139734Y-187441329D01*
G75*
G02*
X287039734Y-187341329I0J100000D01*
G01*
X287039734Y-186066329D01*
G75*
G02*
X287139734Y-185966329I100000J0D01*
G01*
X287339734Y-185966329D01*
G75*
G02*
X287439734Y-186066329I0J-100000D01*
G01*
X287439734Y-187341329D01*
G75*
G02*
X287339734Y-187441329I-100000J0D01*
G01*
G37*
G36*
G01*
X287989734Y-187441329D02*
X287789734Y-187441329D01*
G75*
G02*
X287689734Y-187341329I0J100000D01*
G01*
X287689734Y-186066329D01*
G75*
G02*
X287789734Y-185966329I100000J0D01*
G01*
X287989734Y-185966329D01*
G75*
G02*
X288089734Y-186066329I0J-100000D01*
G01*
X288089734Y-187341329D01*
G75*
G02*
X287989734Y-187441329I-100000J0D01*
G01*
G37*
G36*
G01*
X287989734Y-181716329D02*
X287789734Y-181716329D01*
G75*
G02*
X287689734Y-181616329I0J100000D01*
G01*
X287689734Y-180341329D01*
G75*
G02*
X287789734Y-180241329I100000J0D01*
G01*
X287989734Y-180241329D01*
G75*
G02*
X288089734Y-180341329I0J-100000D01*
G01*
X288089734Y-181616329D01*
G75*
G02*
X287989734Y-181716329I-100000J0D01*
G01*
G37*
G36*
G01*
X287339734Y-181716329D02*
X287139734Y-181716329D01*
G75*
G02*
X287039734Y-181616329I0J100000D01*
G01*
X287039734Y-180341329D01*
G75*
G02*
X287139734Y-180241329I100000J0D01*
G01*
X287339734Y-180241329D01*
G75*
G02*
X287439734Y-180341329I0J-100000D01*
G01*
X287439734Y-181616329D01*
G75*
G02*
X287339734Y-181716329I-100000J0D01*
G01*
G37*
G36*
G01*
X286689734Y-181716329D02*
X286489734Y-181716329D01*
G75*
G02*
X286389734Y-181616329I0J100000D01*
G01*
X286389734Y-180341329D01*
G75*
G02*
X286489734Y-180241329I100000J0D01*
G01*
X286689734Y-180241329D01*
G75*
G02*
X286789734Y-180341329I0J-100000D01*
G01*
X286789734Y-181616329D01*
G75*
G02*
X286689734Y-181716329I-100000J0D01*
G01*
G37*
G36*
G01*
X286039734Y-181716329D02*
X285839734Y-181716329D01*
G75*
G02*
X285739734Y-181616329I0J100000D01*
G01*
X285739734Y-180341329D01*
G75*
G02*
X285839734Y-180241329I100000J0D01*
G01*
X286039734Y-180241329D01*
G75*
G02*
X286139734Y-180341329I0J-100000D01*
G01*
X286139734Y-181616329D01*
G75*
G02*
X286039734Y-181716329I-100000J0D01*
G01*
G37*
G36*
G01*
X285389734Y-181716329D02*
X285189734Y-181716329D01*
G75*
G02*
X285089734Y-181616329I0J100000D01*
G01*
X285089734Y-180341329D01*
G75*
G02*
X285189734Y-180241329I100000J0D01*
G01*
X285389734Y-180241329D01*
G75*
G02*
X285489734Y-180341329I0J-100000D01*
G01*
X285489734Y-181616329D01*
G75*
G02*
X285389734Y-181716329I-100000J0D01*
G01*
G37*
G36*
G01*
X284739734Y-181716329D02*
X284539734Y-181716329D01*
G75*
G02*
X284439734Y-181616329I0J100000D01*
G01*
X284439734Y-180341329D01*
G75*
G02*
X284539734Y-180241329I100000J0D01*
G01*
X284739734Y-180241329D01*
G75*
G02*
X284839734Y-180341329I0J-100000D01*
G01*
X284839734Y-181616329D01*
G75*
G02*
X284739734Y-181716329I-100000J0D01*
G01*
G37*
G36*
G01*
X284089734Y-181716329D02*
X283889734Y-181716329D01*
G75*
G02*
X283789734Y-181616329I0J100000D01*
G01*
X283789734Y-180341329D01*
G75*
G02*
X283889734Y-180241329I100000J0D01*
G01*
X284089734Y-180241329D01*
G75*
G02*
X284189734Y-180341329I0J-100000D01*
G01*
X284189734Y-181616329D01*
G75*
G02*
X284089734Y-181716329I-100000J0D01*
G01*
G37*
G36*
G01*
X283439734Y-181716329D02*
X283239734Y-181716329D01*
G75*
G02*
X283139734Y-181616329I0J100000D01*
G01*
X283139734Y-180341329D01*
G75*
G02*
X283239734Y-180241329I100000J0D01*
G01*
X283439734Y-180241329D01*
G75*
G02*
X283539734Y-180341329I0J-100000D01*
G01*
X283539734Y-181616329D01*
G75*
G02*
X283439734Y-181716329I-100000J0D01*
G01*
G37*
G36*
G01*
X282789734Y-181716329D02*
X282589734Y-181716329D01*
G75*
G02*
X282489734Y-181616329I0J100000D01*
G01*
X282489734Y-180341329D01*
G75*
G02*
X282589734Y-180241329I100000J0D01*
G01*
X282789734Y-180241329D01*
G75*
G02*
X282889734Y-180341329I0J-100000D01*
G01*
X282889734Y-181616329D01*
G75*
G02*
X282789734Y-181716329I-100000J0D01*
G01*
G37*
G36*
G01*
X282139734Y-181716329D02*
X281939734Y-181716329D01*
G75*
G02*
X281839734Y-181616329I0J100000D01*
G01*
X281839734Y-180341329D01*
G75*
G02*
X281939734Y-180241329I100000J0D01*
G01*
X282139734Y-180241329D01*
G75*
G02*
X282239734Y-180341329I0J-100000D01*
G01*
X282239734Y-181616329D01*
G75*
G02*
X282139734Y-181716329I-100000J0D01*
G01*
G37*
G36*
G01*
X281489734Y-181716329D02*
X281289734Y-181716329D01*
G75*
G02*
X281189734Y-181616329I0J100000D01*
G01*
X281189734Y-180341329D01*
G75*
G02*
X281289734Y-180241329I100000J0D01*
G01*
X281489734Y-180241329D01*
G75*
G02*
X281589734Y-180341329I0J-100000D01*
G01*
X281589734Y-181616329D01*
G75*
G02*
X281489734Y-181716329I-100000J0D01*
G01*
G37*
G36*
G01*
X280839734Y-181716329D02*
X280639734Y-181716329D01*
G75*
G02*
X280539734Y-181616329I0J100000D01*
G01*
X280539734Y-180341329D01*
G75*
G02*
X280639734Y-180241329I100000J0D01*
G01*
X280839734Y-180241329D01*
G75*
G02*
X280939734Y-180341329I0J-100000D01*
G01*
X280939734Y-181616329D01*
G75*
G02*
X280839734Y-181716329I-100000J0D01*
G01*
G37*
G36*
X107202530Y-139494307D02*
G01*
X107300026Y-140288344D01*
X106406734Y-140398027D01*
X106309238Y-139603990D01*
X107202530Y-139494307D01*
G37*
G36*
X106970978Y-137608469D02*
G01*
X107068474Y-138402506D01*
X106175182Y-138512189D01*
X106077686Y-137718152D01*
X106970978Y-137608469D01*
G37*
G36*
X105101662Y-138795126D02*
G01*
X105199158Y-139589163D01*
X104305866Y-139698846D01*
X104208370Y-138904809D01*
X105101662Y-138795126D01*
G37*
G36*
G01*
X122633261Y-185122789D02*
X122158261Y-185122789D01*
G75*
G02*
X121920761Y-184885289I0J237500D01*
G01*
X121920761Y-184285289D01*
G75*
G02*
X122158261Y-184047789I237500J0D01*
G01*
X122633261Y-184047789D01*
G75*
G02*
X122870761Y-184285289I0J-237500D01*
G01*
X122870761Y-184885289D01*
G75*
G02*
X122633261Y-185122789I-237500J0D01*
G01*
G37*
G36*
G01*
X122633261Y-183397789D02*
X122158261Y-183397789D01*
G75*
G02*
X121920761Y-183160289I0J237500D01*
G01*
X121920761Y-182560289D01*
G75*
G02*
X122158261Y-182322789I237500J0D01*
G01*
X122633261Y-182322789D01*
G75*
G02*
X122870761Y-182560289I0J-237500D01*
G01*
X122870761Y-183160289D01*
G75*
G02*
X122633261Y-183397789I-237500J0D01*
G01*
G37*
G36*
G01*
X128526061Y-179737991D02*
X128051061Y-179737991D01*
G75*
G02*
X127813561Y-179500491I0J237500D01*
G01*
X127813561Y-178900491D01*
G75*
G02*
X128051061Y-178662991I237500J0D01*
G01*
X128526061Y-178662991D01*
G75*
G02*
X128763561Y-178900491I0J-237500D01*
G01*
X128763561Y-179500491D01*
G75*
G02*
X128526061Y-179737991I-237500J0D01*
G01*
G37*
G36*
G01*
X128526061Y-178012991D02*
X128051061Y-178012991D01*
G75*
G02*
X127813561Y-177775491I0J237500D01*
G01*
X127813561Y-177175491D01*
G75*
G02*
X128051061Y-176937991I237500J0D01*
G01*
X128526061Y-176937991D01*
G75*
G02*
X128763561Y-177175491I0J-237500D01*
G01*
X128763561Y-177775491D01*
G75*
G02*
X128526061Y-178012991I-237500J0D01*
G01*
G37*
D15*
X117948687Y-184662559D03*
X117948687Y-181362559D03*
D16*
X120480561Y-181166784D03*
X122380561Y-181166784D03*
X121430561Y-179166784D03*
G36*
G01*
X120601261Y-185122788D02*
X120126261Y-185122788D01*
G75*
G02*
X119888761Y-184885288I0J237500D01*
G01*
X119888761Y-184385288D01*
G75*
G02*
X120126261Y-184147788I237500J0D01*
G01*
X120601261Y-184147788D01*
G75*
G02*
X120838761Y-184385288I0J-237500D01*
G01*
X120838761Y-184885288D01*
G75*
G02*
X120601261Y-185122788I-237500J0D01*
G01*
G37*
G36*
G01*
X120601261Y-183297788D02*
X120126261Y-183297788D01*
G75*
G02*
X119888761Y-183060288I0J237500D01*
G01*
X119888761Y-182560288D01*
G75*
G02*
X120126261Y-182322788I237500J0D01*
G01*
X120601261Y-182322788D01*
G75*
G02*
X120838761Y-182560288I0J-237500D01*
G01*
X120838761Y-183060288D01*
G75*
G02*
X120601261Y-183297788I-237500J0D01*
G01*
G37*
G36*
G01*
X130545363Y-179699891D02*
X130070363Y-179699891D01*
G75*
G02*
X129832863Y-179462391I0J237500D01*
G01*
X129832863Y-178962391D01*
G75*
G02*
X130070363Y-178724891I237500J0D01*
G01*
X130545363Y-178724891D01*
G75*
G02*
X130782863Y-178962391I0J-237500D01*
G01*
X130782863Y-179462391D01*
G75*
G02*
X130545363Y-179699891I-237500J0D01*
G01*
G37*
G36*
G01*
X130545363Y-177874891D02*
X130070363Y-177874891D01*
G75*
G02*
X129832863Y-177637391I0J237500D01*
G01*
X129832863Y-177137391D01*
G75*
G02*
X130070363Y-176899891I237500J0D01*
G01*
X130545363Y-176899891D01*
G75*
G02*
X130782863Y-177137391I0J-237500D01*
G01*
X130782863Y-177637391D01*
G75*
G02*
X130545363Y-177874891I-237500J0D01*
G01*
G37*
D17*
X288308673Y-125174450D03*
X278173423Y-124465724D03*
D18*
X283241048Y-124820087D03*
X118114311Y-132340199D03*
D17*
X113072177Y-132959295D03*
X123156445Y-131721103D03*
D18*
X261703366Y-148389796D03*
D17*
X266780271Y-148567085D03*
X256626461Y-148212507D03*
X316822614Y-165968109D03*
D18*
X321680642Y-167453357D03*
D17*
X326538670Y-168938605D03*
D18*
X175581440Y-189849736D03*
D17*
X170594774Y-188880426D03*
X180568106Y-190819046D03*
X298959796Y-131721104D03*
D18*
X304001930Y-132340200D03*
D17*
X309044064Y-132959296D03*
D18*
X141525926Y-162727520D03*
D17*
X136458301Y-163081883D03*
X146593551Y-162373157D03*
D18*
X262366463Y-129401376D03*
D17*
X257289558Y-129224087D03*
X267443368Y-129578665D03*
X185533503Y-150708335D03*
D18*
X180453503Y-150708335D03*
D17*
X175373503Y-150708335D03*
D18*
X155453502Y-187378326D03*
D17*
X150380464Y-187112459D03*
X160526540Y-187644193D03*
X105293628Y-165968115D03*
X95577572Y-168938611D03*
D18*
X100435600Y-167453363D03*
D17*
X115387694Y-151817672D03*
D18*
X120429828Y-151198576D03*
D17*
X125471962Y-150579480D03*
X236582728Y-169708336D03*
D18*
X241662728Y-169708336D03*
D17*
X246742728Y-169708336D03*
X90022511Y-150768817D03*
D18*
X94880539Y-149283569D03*
D17*
X99738567Y-147798321D03*
X236582739Y-131708341D03*
X246742739Y-131708341D03*
D18*
X241662739Y-131708341D03*
X180453514Y-131708327D03*
D17*
X185533514Y-131708327D03*
X175373514Y-131708327D03*
X276848050Y-143419450D03*
D18*
X281915675Y-143773813D03*
D17*
X286983300Y-144128176D03*
X304413034Y-170676062D03*
X294328766Y-169437870D03*
D18*
X299370900Y-170056966D03*
X161075943Y-167378224D03*
D17*
X155999038Y-167555513D03*
X166152848Y-167200935D03*
X261589697Y-187644196D03*
D18*
X266662735Y-187378329D03*
D17*
X271735773Y-187112462D03*
X175373509Y-169708335D03*
D18*
X180453509Y-169708335D03*
D17*
X185533509Y-169708335D03*
X255963377Y-167200934D03*
X266117187Y-167555512D03*
D18*
X261040282Y-167378223D03*
D17*
X135132927Y-144128173D03*
X145268177Y-143419447D03*
D18*
X140200552Y-143773810D03*
D17*
X275522679Y-162373167D03*
X285657929Y-163081893D03*
D18*
X280590304Y-162727530D03*
X316125562Y-185623147D03*
D17*
X320983590Y-187108395D03*
X311267534Y-184137899D03*
D18*
X226946719Y-195098350D03*
D17*
X222143485Y-196752236D03*
X231749953Y-193444464D03*
X251521463Y-188880422D03*
D18*
X246534797Y-189849732D03*
D17*
X241548131Y-190819042D03*
D18*
X160412861Y-148389797D03*
D17*
X165489766Y-148212508D03*
X155335956Y-148567086D03*
D18*
X301686412Y-151198579D03*
D17*
X296644278Y-150579483D03*
X306728546Y-151817675D03*
X332093734Y-150768824D03*
X322377678Y-147798328D03*
D18*
X327235706Y-149283576D03*
D17*
X143942804Y-124465722D03*
X133807554Y-125174448D03*
D18*
X138875179Y-124820085D03*
D17*
X117703205Y-170676057D03*
D18*
X122745339Y-170056961D03*
D17*
X127787473Y-169437865D03*
D18*
X105990662Y-185623164D03*
D17*
X110848690Y-184137916D03*
X101132634Y-187108412D03*
D18*
X159749771Y-129401361D03*
D17*
X154672866Y-129578650D03*
X164826676Y-129224072D03*
D18*
X241662728Y-150708335D03*
D17*
X236582728Y-150708335D03*
X246742728Y-150708335D03*
X199972770Y-196752229D03*
D18*
X195169536Y-195098343D03*
D17*
X190366302Y-193444457D03*
M02*
